$MeshFormat
2.2 0 8
$EndMeshFormat
$PhysicalNames
4
0 1000 "left"
1 3000 "top"
1 3001 "bot"
2 4000 "mesh"
$EndPhysicalNames
$Nodes
331
1 2 0 0
2 -2 0 0
3 1.985417748128361 0.241073361068592 0
4 1.941883634598861 0.4786313296025633 0
5 1.87003248474392 0.7092097757380947 0
6 1.770912050107057 0.9294463463727314 0
7 1.645967729913274 1.136129496177326 0
8 1.497021493585707 1.32624531959303 0
9 1.326245312794895 1.497021499608329 0
10 1.136129488878679 1.645967734951166 0
11 0.9294463384210869 1.770912054280402 0
12 0.7092097674343099 1.870032487893131 0
13 0.478631320904021 1.941883636742859 0
14 0.2410733520658991 1.985417749221486 0
15 -9.256143728923607e-09 2 0
16 -0.2410733690876745 1.985417747154668 0
17 -0.4786313362972283 1.941883632948774 0
18 -0.7092097807829291 1.870032482830667 0
19 -0.9294463500553003 1.770912048174296 0
20 -1.136129498429682 1.645967728358585 0
21 -1.326245320432144 1.497021492842318 0
22 -1.497021499180961 1.326245313277294 0
23 -1.64596773378652 1.136129490565959 0
24 -1.770912052601847 0.9294463416193066 0
25 -1.870032486121689 0.7092097721052164 0
26 -1.941883635183697 0.4786313272297903 0
27 -1.985417748280354 0.2410733598168194 0
28 -1.985417748128361 -0.241073361068592 0
29 -1.941883634598861 -0.4786313296025633 0
30 -1.87003248474392 -0.7092097757380947 0
31 -1.770912050107057 -0.9294463463727314 0
32 -1.645967729913274 -1.136129496177326 0
33 -1.497021493585707 -1.32624531959303 0
34 -1.326245312794895 -1.497021499608329 0
35 -1.136129488878679 -1.645967734951166 0
36 -0.9294463384210869 -1.770912054280402 0
37 -0.7092097674343099 -1.870032487893131 0
38 -0.478631320904021 -1.941883636742859 0
39 -0.2410733520658991 -1.985417749221486 0
40 9.256143728923607e-09 -2 0
41 0.2410733690876745 -1.985417747154668 0
42 0.4786313362972283 -1.941883632948774 0
43 0.7092097807829291 -1.870032482830667 0
44 0.9294463500553003 -1.770912048174296 0
45 1.136129498429682 -1.645967728358585 0
46 1.326245320432144 -1.497021492842318 0
47 1.497021499180961 -1.326245313277294 0
48 1.64596773378652 -1.136129490565959 0
49 1.770912052601847 -0.9294463416193066 0
50 1.870032486121689 -0.7092097721052164 0
51 1.941883635183697 -0.4786313272297903 0
52 1.985417748280354 -0.2410733598168194 0
53 -3.115563362854346e-14 1.536849351483719e-14 0
54 0.7122725843727095 -0.7001466307117064 0
55 -0.7122725843727338 0.7001466307117286 0
56 1.032489618369727 0.3309034256737597 0
57 -1.032489618369727 -0.3309034256737569 0
58 0.2330272411800227 1.024335728621813 0
59 -0.2330272411800454 -1.024335728621812 0
60 1.275594123462638 -0.3229330415941549 0
61 -1.275594123462642 0.3229330415941524 0
62 0.3657798799636607 -1.273919588771411 0
63 -0.3657798799636676 1.273919588771414 0
64 0.9131130678780122 0.9679271356601602 0
65 -0.9131130678780213 -0.9679271356601595 0
66 0.5808624640165732 -0.1487861912884578 0
67 -0.5808624640166182 0.1487861912884745 0
68 0.1530074591221522 -0.558249117431557 0
69 -0.1530074591221905 0.5582491174315873 0
70 0.3925155860497923 0.3910972806157823 0
71 -0.3925155860498122 -0.3910972806157609 0
72 1.183207964252065 -0.8317374009362417 0
73 -1.183207964252086 0.8317374009362394 0
74 1.431569770160638 0.175732135067312 0
75 -1.431569770160635 -0.1757321350673083 0
76 -0.1267322766411364 -1.471068126338466 0
77 0.1267322766411294 1.471068126338467 0
78 -0.8705994705179881 1.231470954348785 0
79 0.8705994705179785 -1.231470954348796 0
80 -1.330998333166882 -0.6474986899444817 0
81 1.330998333166875 0.6474986899444889 0
82 -0.6199734783665937 -1.388105389729186 0
83 0.6199734783665853 1.38810538972919 0
84 -0.5731861559513564 -0.7628801893375549 0
85 0.5731861559513455 0.7628801893375812 0
86 0.3373488965096674 -0.8880712603972793 0
87 -0.3373488965096926 0.8880712603972901 0
88 0.9017503041107673 -0.3694564773640063 0
89 -0.9017503041107926 0.3694564773640223 0
90 1.523881606725457 -0.6058584364923887 0
91 -1.523881606725467 0.6058584364923767 0
92 1.628508508536052 -0.1782689202108529 0
93 -1.628508508536054 0.1782689202108529 0
94 -0.6496470932484689 1.506827924378766 0
95 0.6496470932484525 -1.50682792437877 0
96 1.278652274171807 1.025020189329153 0
97 -1.278652274171815 -1.025020189329147 0
98 0.2413068032853428 -1.62664483931239 0
99 -0.2413068032853493 1.626644839312391 0
100 0.9860765515661127 1.327550074044169 0
101 -0.9860765515661205 -1.327550074044165 0
102 -1.033523199063016 0.03873795583173698 0
103 1.033523199063018 -0.03873795583173448 0
104 0.9929692454223896 0.6549259231690684 0
105 -0.992969245422396 -0.6549259231690691 0
106 0.05074588362846174 -1.196487453856476 0
107 -0.05074588362847491 1.196487453856479 0
108 -0.4732803967612051 0.4670231325319892 0
109 0.4732803967611722 -0.4670231325319674 0
110 1.215980987015447 -1.175888113098963 0
111 -1.215980987015455 1.175888113098956 0
112 1.617181420158057 0.4763106170398928 0
113 -1.617181420158061 -0.4763106170398866 0
114 -0.1946496002988832 -0.6496083051481151 0
115 0.1946496002988553 0.6496083051481306 0
116 0.2466250763020876 -0.2314663631163276 0
117 -0.2466250763021423 0.2314663631163529 0
118 0.6747122672759132 0.1735042378368604 0
119 -0.6747122672759336 -0.1735042378368453 0
120 0.08229934123425213 0.3242588921603434 0
121 -0.08229934123429757 -0.3242588921603171 0
122 0.3284357280690637 0.09165457524341604 0
123 -0.3284357280691089 -0.09165457524338655 0
124 -0.414968154338658 -1.624880468666894 0
125 0.4149681543386525 1.624880468666894 0
126 -0.5392571494227694 -1.071591760966088 0
127 0.5392571494227422 1.071591760966104 0
128 0.1035967652255781 -0.8772730776473104 0
129 -0.1035967652256061 0.877273077647323 0
130 0.6773451665155407 0.5488143599310508 0
131 -0.6773451665155472 -0.5488143599310372 0
132 0.6415180158780674 -1.005046356137479 0
133 -0.6415180158780899 1.005046356137481 0
134 1.246069177463645 0.3792520909753077 0
135 -1.246069177463658 -0.3792520909753024 0
136 -0.9406473829941874 0.9059663612311218 0
137 0.9406473829941651 -0.905966361231115 0
138 1.084634712390882 -0.5319285933053675 0
139 -1.084634712390905 0.5319285933053735 0
140 -0.3274032972468964 -1.238610776664386 0
141 0.3274032972468715 1.238610776664386 0
142 1.472935307917681 -0.8767725680728814 0
143 -1.47293530791769 0.8767725680728783 0
144 1.717835621658118 0.09122061850959652 0
145 -1.717835621658117 -0.09122061850959316 0
146 0.9212561334058761 -1.477213743492622 0
147 -0.9212561334058901 1.477213743492607 0
148 1.4918262009563 0.8794051705880948 0
149 -1.491826200956304 -0.8794051705880903 0
150 -0.1061279222978709 -1.803854307121098 0
151 0.1061279222978697 1.803854307121098 0
152 -1.284978313032272 0.06520596300839995 0
153 1.284978313032281 -0.06520596300840154 0
154 0.7242467014125734 1.609210172453347 0
155 -0.7242467014125735 -1.609210172453347 0
156 1.690645064898854 -0.4167065800309444 0
157 -1.690645064898864 0.4167065800309389 0
158 -0.4990423214197479 1.69593463443982 0
159 0.4990423214197397 -1.695934634439822 0
160 0.6253512828947018 -1.250018055271378 0
161 -0.625351282894716 1.250018055271374 0
162 0.7913554197897151 -0.02174773235779709 0
163 -0.7913554197897233 0.02174773235780147 0
164 0.7665101447591027 1.183872552670194 0
165 -0.7665101447591171 -1.183872552670187 0
166 -1.237844682568155 -1.269001738766949 0
167 1.23784468256815 1.269001738766952 0
168 1.143749578137946 0.8267690127544209 0
169 -1.143749578137955 -0.8267690127544167 0
170 0.1395412315837613 -1.378942441878985 0
171 -0.1395412315837716 1.378942441878988 0
172 -1.159821186408258 -0.1484968154531494 0
173 1.159821186408259 0.1484968154531506 0
174 0.8143380562848158 0.7465345882568355 0
175 -0.8143380562848249 -0.7465345882568318 0
176 0.4797279166329729 -0.6936002362486383 0
177 -0.4797279166329996 0.6936002362486535 0
178 -0.2263969597531289 1.091778679902096 0
179 0.2263969597531182 -1.091778679902093 0
180 1.11503504355396 -1.346937216092296 0
181 -1.115035043553966 1.346937216092293 0
182 1.669713948123136 0.693187418553295 0
183 -1.669713948123138 -0.693187418553292 0
184 1.418549930261719 -1.114826553898634 0
185 -1.418549930261727 1.114826553898636 0
186 1.774149314642 0.327896870317823 0
187 -1.774149314642003 -0.3278968703178212 0
188 0.6984829260213908 -0.4842800291875856 0
189 -0.6984829260214142 0.4842800291876154 0
190 0.3438209097123823 0.7929715766545167 0
191 -0.3438209097123996 -0.7929715766545159 0
192 -0.9436696862077529 -1.540600077161917 0
193 0.9436696862077514 1.540600077161918 0
194 -0.9281685159973743 0.701553155969481 0
195 0.928168515997345 -0.7015531559694695 0
196 0.1183587213187221 -1.804505370702731 0
197 -0.1183587213187256 1.804505370702732 0
198 -1.47503376267506 0.3943317575865562 0
199 1.475033762675053 -0.3943317575865619 0
200 1.074795281247044 1.109897815020003 0
201 -1.074795281247056 -1.109897815019996 0
202 1.069507453036816 -0.2552043166000085 0
203 -1.069507453036818 0.2552043166000154 0
204 0.4400433026696902 -1.476885925741425 0
205 -0.440043302669709 1.476885925741421 0
206 1.315063409671708 -0.6243390102560457 0
207 -1.315063409671727 0.6243390102560449 0
208 -1.663134792968649 0.7485162071162719 0
209 1.663134792968651 -0.7485162071162725 0
210 1.820485550803327 -0.1101190881230698 0
211 -1.820485550803327 0.1101190881230699 0
212 -0.4636148214024255 1.057556862995852 0
213 0.4636148214024088 -1.057556862995847 0
214 0.6700514615541724 0.9470706171814175 0
215 -0.670051461554186 -0.9470706171814096 0
216 -0.4253809416286554 -0.5696418006528425 0
217 0.4253809416286357 0.5696418006528572 0
218 0.2138074330539531 -0.7498754901633188 0
219 -0.2138074330539959 0.7498754901633458 0
220 -0.3212129661982123 -1.78985444875697 0
221 0.3212129661982106 1.789854448756971 0
222 0.7510768820654723 -1.67302812791874 0
223 -0.7510768820654751 1.673028127918741 0
224 1.438412640190248 1.130302549026739 0
225 -1.438412640190251 -1.130302549026738 0
226 0.7497150032192286 -0.2531313822707569 0
227 -0.7497150032192589 0.2531313822707734 0
228 -0.3156825102817451 1.810877244911677 0
229 0.3156825102817414 -1.810877244911677 0
230 -1.125993144403121 -1.456028224906505 0
231 1.125993144403117 1.456028224906506 0
232 1.048043688531077 -1.080176182705874 0
233 -1.04804368853109 1.080176182705875 0
234 1.453510518400375 0.4299080171292554 0
235 -1.45351051840038 -0.4299080171292489 0
236 -0.1378298586006766 -0.1378626922506455 0
237 0.1378298586006264 0.1378626922506779 0
238 -0.1081211248276727 0.3692365830219489 0
239 0.1081211248276251 -0.369236583021924 0
240 0.3961934508101924 1.447133483549341 0
241 -0.3961934508102037 -1.447133483549338 0
242 0.5721063238627341 1.731283584542675 0
243 -0.5721063238627371 -1.731283584542674 0
244 -1.152801500553369 -0.5565766304357221 0
245 1.152801500553365 0.5565766304357284 0
246 -0.0384501677253772 -0.5110432077687597 0
247 0.03845016772533206 0.5110432077687933 0
248 -0.1133920200170013 -1.264729934696046 0
249 0.1133920200169825 1.264729934696052 0
250 0.02795146967933387 -1.612167691771197 0
251 -0.02795146967933637 1.6121676917712 0
252 0.4307841581861562 -0.2810259139325595 0
253 -0.4307841581862041 0.2810259139325818 0
254 -1.429669960084117 0.1990807575915823 0
255 1.429669960084121 -0.1990807575915932 0
256 -1.500484476116474 0.0224979653919689 0
257 1.500484476116483 -0.02249796539196176 0
258 0.8080953124624252 1.409867653211764 0
259 -0.8080953124624316 -1.409867653211761 0
260 0.05979974803242187 -0.1815996907423964 0
261 -0.05979974803249549 0.1815996907424226 0
262 -0.9109381971225614 -0.1509939146368475 0
263 0.9109381971225545 0.1509939146368543 0
264 0.5369376407171639 0.03835486464472671 0
265 -0.5369376407171991 -0.03835486464470743 0
266 0.3875828797524622 -0.09557446442965443 0
267 -0.3875828797525114 0.09557446442967693 0
268 0.289288963919213 -0.4241301346116911 0
269 -0.2892889639192494 0.4241301346117265 0
270 0.4612795891389725 0.2238225768418712 0
271 -0.4612795891389976 -0.2238225768418484 0
272 0.232430501717698 0.4541739348063254 0
273 -0.2324305017177274 -0.4541739348063016 0
274 0.2724651008017341 0.270478325319736 0
275 -0.27246510080177 -0.2704783253197099 0
276 -0.8996636474554912 -0.48810933744541 0
277 0.8996636474554867 0.4881093374454104 0
278 0.1933788817927717 -0.04652054179904484 0
279 -0.1933788817928276 0.04652054179907263 0
280 0.03747917361041149 1.033934432950373 0
281 -0.03747917361043145 -1.033934432950372 0
282 0.01782141139432474 -0.6967128727166 0
283 -0.01782141139436131 0.6967128727166224 0
284 0.1303834210114372 0.8342280381405552 0
285 -0.1303834210114745 -0.8342280381405393 0
286 -0.7719582992911239 1.368265728637849 0
287 0.7719582992911135 -1.368265728637861 0
288 -1.314087494872345 1.308261058988486 0
289 1.314087494872345 -1.308261058988488 0
290 -1.774430391895795 -0.5415505304392044 0
291 1.774430391895794 0.541550530439206 0
292 0.7844904922640383 0.3288497543139796 0
293 -0.7844904922640507 -0.3288497543139674 0
294 0.5866249896409041 -0.3268493298422654 0
295 -0.5866249896409402 0.3268493298422869 0
296 1.311306596608232 0.8446732656540396 0
297 -1.311306596608239 -0.844673265654034 0
298 -1.26774357559561 1.015880163742517 0
299 1.267743575595597 -1.015880163742519 0
300 0.5726171362305053 0.3698912528097653 0
301 -0.5726171362305191 -0.3698912528097458 0
302 0.3218224338978927 -0.5785756221974345 0
303 -0.3218224338979281 0.5785756221974604 0
304 -0.2291740777603549 -1.622863181109647 0
305 0.2291740777603515 1.622863181109645 0
306 -1.737915517179673 0.5917844645949188 0
307 1.73791551717967 -0.5917844645949224 0
308 1.813388101540457 -0.2849598550822953 0
309 -1.813388101540459 0.2849598550822942 0
310 0.5653482373895082 -0.8699629732292465 0
311 -0.565348237389533 0.8699629732292586 0
312 1.59987276647878 0.2945796111880501 0
313 -1.599872766478784 -0.2945796111880433 0
314 0.5025820231557067 1.248357119307377 0
315 -0.5025820231557303 -1.248357119307362 0
316 0.5502477304609631 1.555004677516178 0
317 -0.5502477304609682 -1.555004677516177 0
318 0.4139041950290163 0.9496174761976299 0
319 -0.4139041950290276 -0.9496174761976355 0
320 0.8139611717262022 -1.058005733763195 0
321 -0.8139611717262214 1.058005733763198 0
322 1.512646084160948 0.6252619826510054 0
323 -1.512646084160953 -0.6252619826509999 0
324 0.9139822500125205 -0.1778443850400094 0
325 -0.9139822500125395 0.1778443850400236 0
326 0.7643063289591588 -0.8739924754720335 0
327 -0.7643063289591853 0.8739924754720455 0
328 0.8639301289321444 -0.5420058754323459 0
329 -0.8639301289321627 0.5420058754323699 0
330 0.966042486930791 0.7990391649601215 0
331 -0.9660424869307995 -0.7990391649601194 0
$EndNodes
$Elements
661
1 15 2 1000 1001 2
2 1 2 3000 2000 1 3
3 1 2 3000 2000 3 4
4 1 2 3000 2000 4 5
5 1 2 3000 2000 5 6
6 1 2 3000 2000 6 7
7 1 2 3000 2000 7 8
8 1 2 3000 2000 8 9
9 1 2 3000 2000 9 10
10 1 2 3000 2000 10 11
11 1 2 3000 2000 11 12
12 1 2 3000 2000 12 13
13 1 2 3000 2000 13 14
14 1 2 3000 2000 14 15
15 1 2 3000 2000 15 16
16 1 2 3000 2000 16 17
17 1 2 3000 2000 17 18
18 1 2 3000 2000 18 19
19 1 2 3000 2000 19 20
20 1 2 3000 2000 20 21
21 1 2 3000 2000 21 22
22 1 2 3000 2000 22 23
23 1 2 3000 2000 23 24
24 1 2 3000 2000 24 25
25 1 2 3000 2000 25 26
26 1 2 3000 2000 26 27
27 1 2 3000 2000 27 2
28 1 2 3001 2001 2 28
29 1 2 3001 2001 28 29
30 1 2 3001 2001 29 30
31 1 2 3001 2001 30 31
32 1 2 3001 2001 31 32
33 1 2 3001 2001 32 33
34 1 2 3001 2001 33 34
35 1 2 3001 2001 34 35
36 1 2 3001 2001 35 36
37 1 2 3001 2001 36 37
38 1 2 3001 2001 37 38
39 1 2 3001 2001 38 39
40 1 2 3001 2001 39 40
41 1 2 3001 2001 40 41
42 1 2 3001 2001 41 42
43 1 2 3001 2001 42 43
44 1 2 3001 2001 43 44
45 1 2 3001 2001 44 45
46 1 2 3001 2001 45 46
47 1 2 3001 2001 46 47
48 1 2 3001 2001 47 48
49 1 2 3001 2001 48 49
50 1 2 3001 2001 49 50
51 1 2 3001 2001 50 51
52 1 2 3001 2001 51 52
53 1 2 3001 2001 52 1
54 2 2 4000 4000 198 61 207
55 2 2 4000 4000 199 60 206
56 2 2 4000 4000 56 134 245
57 2 2 4000 4000 57 135 244
58 2 2 4000 4000 56 245 277
59 2 2 4000 4000 57 244 276
60 2 2 4000 4000 60 138 206
61 2 2 4000 4000 61 139 207
62 2 2 4000 4000 137 72 195
63 2 2 4000 4000 136 73 194
64 2 2 4000 4000 79 180 232
65 2 2 4000 4000 78 181 233
66 2 2 4000 4000 58 141 249
67 2 2 4000 4000 59 140 248
68 2 2 4000 4000 141 58 318
69 2 2 4000 4000 140 59 319
70 2 2 4000 4000 127 141 318
71 2 2 4000 4000 126 140 319
72 2 2 4000 4000 72 138 195
73 2 2 4000 4000 73 139 194
74 2 2 4000 4000 143 91 207
75 2 2 4000 4000 142 90 206
76 2 2 4000 4000 58 249 280
77 2 2 4000 4000 59 248 281
78 2 2 4000 4000 80 135 235
79 2 2 4000 4000 81 134 234
80 2 2 4000 4000 73 136 233
81 2 2 4000 4000 72 137 232
82 2 2 4000 4000 84 131 175
83 2 2 4000 4000 85 130 174
84 2 2 4000 4000 72 142 206
85 2 2 4000 4000 73 143 207
86 2 2 4000 4000 86 128 179
87 2 2 4000 4000 87 129 178
88 2 2 4000 4000 78 147 181
89 2 2 4000 4000 79 146 180
90 2 2 4000 4000 171 63 178
91 2 2 4000 4000 170 62 179
92 2 2 4000 4000 107 171 178
93 2 2 4000 4000 106 170 179
94 2 2 4000 4000 138 60 202
95 2 2 4000 4000 139 61 203
96 2 2 4000 4000 88 138 202
97 2 2 4000 4000 89 139 203
98 2 2 4000 4000 60 153 202
99 2 2 4000 4000 61 152 203
100 2 2 4000 4000 153 103 202
101 2 2 4000 4000 152 102 203
102 2 2 4000 4000 75 135 172
103 2 2 4000 4000 74 134 173
104 2 2 4000 4000 80 235 323
105 2 2 4000 4000 81 234 322
106 2 2 4000 4000 140 126 315
107 2 2 4000 4000 141 127 314
108 2 2 4000 4000 76 140 241
109 2 2 4000 4000 77 141 240
110 2 2 4000 4000 131 84 216
111 2 2 4000 4000 130 85 217
112 2 2 4000 4000 73 233 298
113 2 2 4000 4000 72 232 299
114 2 2 4000 4000 180 110 232
115 2 2 4000 4000 181 111 233
116 2 2 4000 4000 100 164 200
117 2 2 4000 4000 101 165 201
118 2 2 4000 4000 175 131 276
119 2 2 4000 4000 174 130 277
120 2 2 4000 4000 171 99 205
121 2 2 4000 4000 170 98 204
122 2 2 4000 4000 179 128 281
123 2 2 4000 4000 178 129 280
124 2 2 4000 4000 134 56 173
125 2 2 4000 4000 135 57 172
126 2 2 4000 4000 129 87 219
127 2 2 4000 4000 128 86 218
128 2 2 4000 4000 164 64 200
129 2 2 4000 4000 165 65 201
130 2 2 4000 4000 19 20 147
131 2 2 4000 4000 44 45 146
132 2 2 4000 4000 31 32 149
133 2 2 4000 4000 6 7 148
134 2 2 4000 4000 159 43 222
135 2 2 4000 4000 158 18 223
136 2 2 4000 4000 42 43 159
137 2 2 4000 4000 17 18 158
138 2 2 4000 4000 76 241 304
139 2 2 4000 4000 77 240 305
140 2 2 4000 4000 48 49 142
141 2 2 4000 4000 23 24 143
142 2 2 4000 4000 1 3 144
143 2 2 4000 4000 2 28 145
144 2 2 4000 4000 106 179 281
145 2 2 4000 4000 107 178 280
146 2 2 4000 4000 152 75 172
147 2 2 4000 4000 153 74 173
148 2 2 4000 4000 104 174 277
149 2 2 4000 4000 105 175 276
150 2 2 4000 4000 63 171 205
151 2 2 4000 4000 62 170 204
152 2 2 4000 4000 134 81 245
153 2 2 4000 4000 135 80 244
154 2 2 4000 4000 91 198 207
155 2 2 4000 4000 90 199 206
156 2 2 4000 4000 64 168 200
157 2 2 4000 4000 65 169 201
158 2 2 4000 4000 134 74 234
159 2 2 4000 4000 135 75 235
160 2 2 4000 4000 176 54 188
161 2 2 4000 4000 177 55 189
162 2 2 4000 4000 109 176 188
163 2 2 4000 4000 108 177 189
164 2 2 4000 4000 93 145 256
165 2 2 4000 4000 92 144 257
166 2 2 4000 4000 8 9 167
167 2 2 4000 4000 33 34 166
168 2 2 4000 4000 76 170 248
169 2 2 4000 4000 77 171 249
170 2 2 4000 4000 84 215 319
171 2 2 4000 4000 85 214 318
172 2 2 4000 4000 39 40 150
173 2 2 4000 4000 14 15 151
174 2 2 4000 4000 8 167 224
175 2 2 4000 4000 33 166 225
176 2 2 4000 4000 91 143 208
177 2 2 4000 4000 90 142 209
178 2 2 4000 4000 145 93 211
179 2 2 4000 4000 144 92 210
180 2 2 4000 4000 149 32 225
181 2 2 4000 4000 148 7 224
182 2 2 4000 4000 19 147 223
183 2 2 4000 4000 44 146 222
184 2 2 4000 4000 140 76 248
185 2 2 4000 4000 141 77 249
186 2 2 4000 4000 131 216 301
187 2 2 4000 4000 130 217 300
188 2 2 4000 4000 118 263 292
189 2 2 4000 4000 119 262 293
190 2 2 4000 4000 118 162 263
191 2 2 4000 4000 119 163 262
192 2 2 4000 4000 215 126 319
193 2 2 4000 4000 214 127 318
194 2 2 4000 4000 168 96 200
195 2 2 4000 4000 169 97 201
196 2 2 4000 4000 138 88 328
197 2 2 4000 4000 139 89 329
198 2 2 4000 4000 138 72 206
199 2 2 4000 4000 139 73 207
200 2 2 4000 4000 161 78 321
201 2 2 4000 4000 160 79 320
202 2 2 4000 4000 147 20 181
203 2 2 4000 4000 146 45 180
204 2 2 4000 4000 31 149 183
205 2 2 4000 4000 6 148 182
206 2 2 4000 4000 86 213 310
207 2 2 4000 4000 87 212 311
208 2 2 4000 4000 11 12 154
209 2 2 4000 4000 36 37 155
210 2 2 4000 4000 133 161 321
211 2 2 4000 4000 132 160 320
212 2 2 4000 4000 95 159 222
213 2 2 4000 4000 94 158 223
214 2 2 4000 4000 145 75 256
215 2 2 4000 4000 144 74 257
216 2 2 4000 4000 170 106 248
217 2 2 4000 4000 171 107 249
218 2 2 4000 4000 213 132 310
219 2 2 4000 4000 212 133 311
220 2 2 4000 4000 95 160 204
221 2 2 4000 4000 94 161 205
222 2 2 4000 4000 160 62 204
223 2 2 4000 4000 161 63 205
224 2 2 4000 4000 48 142 184
225 2 2 4000 4000 23 143 185
226 2 2 4000 4000 144 3 186
227 2 2 4000 4000 145 28 187
228 2 2 4000 4000 38 220 243
229 2 2 4000 4000 13 221 242
230 2 2 4000 4000 102 152 172
231 2 2 4000 4000 103 153 173
232 2 2 4000 4000 164 83 314
233 2 2 4000 4000 165 82 315
234 2 2 4000 4000 147 94 223
235 2 2 4000 4000 146 95 222
236 2 2 4000 4000 97 149 225
237 2 2 4000 4000 96 148 224
238 2 2 4000 4000 66 162 264
239 2 2 4000 4000 67 163 265
240 2 2 4000 4000 162 118 264
241 2 2 4000 4000 163 119 265
242 2 2 4000 4000 127 164 314
243 2 2 4000 4000 126 165 315
244 2 2 4000 4000 217 115 272
245 2 2 4000 4000 216 114 273
246 2 2 4000 4000 156 92 199
247 2 2 4000 4000 157 93 198
248 2 2 4000 4000 1 144 210
249 2 2 4000 4000 2 145 211
250 2 2 4000 4000 142 49 209
251 2 2 4000 4000 143 24 208
252 2 2 4000 4000 245 104 277
253 2 2 4000 4000 244 105 276
254 2 2 4000 4000 148 81 322
255 2 2 4000 4000 149 80 323
256 2 2 4000 4000 171 77 251
257 2 2 4000 4000 170 76 250
258 2 2 4000 4000 142 72 299
259 2 2 4000 4000 143 73 298
260 2 2 4000 4000 167 96 224
261 2 2 4000 4000 166 97 225
262 2 2 4000 4000 99 158 205
263 2 2 4000 4000 98 159 204
264 2 2 4000 4000 74 144 312
265 2 2 4000 4000 75 145 313
266 2 2 4000 4000 20 21 181
267 2 2 4000 4000 45 46 180
268 2 2 4000 4000 30 31 183
269 2 2 4000 4000 5 6 182
270 2 2 4000 4000 190 115 217
271 2 2 4000 4000 191 114 216
272 2 2 4000 4000 173 56 263
273 2 2 4000 4000 172 57 262
274 2 2 4000 4000 80 169 244
275 2 2 4000 4000 81 168 245
276 2 2 4000 4000 169 105 244
277 2 2 4000 4000 168 104 245
278 2 2 4000 4000 249 107 280
279 2 2 4000 4000 248 106 281
280 2 2 4000 4000 169 65 331
281 2 2 4000 4000 168 64 330
282 2 2 4000 4000 220 124 243
283 2 2 4000 4000 221 125 242
284 2 2 4000 4000 150 40 196
285 2 2 4000 4000 151 15 197
286 2 2 4000 4000 86 176 218
287 2 2 4000 4000 87 177 219
288 2 2 4000 4000 189 89 227
289 2 2 4000 4000 188 88 226
290 2 2 4000 4000 36 155 192
291 2 2 4000 4000 11 154 193
292 2 2 4000 4000 81 148 296
293 2 2 4000 4000 80 149 297
294 2 2 4000 4000 189 227 295
295 2 2 4000 4000 188 226 294
296 2 2 4000 4000 218 176 302
297 2 2 4000 4000 219 177 303
298 2 2 4000 4000 95 146 287
299 2 2 4000 4000 94 147 286
300 2 2 4000 4000 146 79 287
301 2 2 4000 4000 147 78 286
302 2 2 4000 4000 148 96 296
303 2 2 4000 4000 149 97 297
304 2 2 4000 4000 241 124 304
305 2 2 4000 4000 240 125 305
306 2 2 4000 4000 166 101 201
307 2 2 4000 4000 167 100 200
308 2 2 4000 4000 39 150 220
309 2 2 4000 4000 14 151 221
310 2 2 4000 4000 182 148 322
311 2 2 4000 4000 183 149 323
312 2 2 4000 4000 90 156 199
313 2 2 4000 4000 91 157 198
314 2 2 4000 4000 216 71 301
315 2 2 4000 4000 217 70 300
316 2 2 4000 4000 82 165 259
317 2 2 4000 4000 83 164 258
318 2 2 4000 4000 152 61 254
319 2 2 4000 4000 153 60 255
320 2 2 4000 4000 75 152 256
321 2 2 4000 4000 74 153 257
322 2 2 4000 4000 62 160 213
323 2 2 4000 4000 63 161 212
324 2 2 4000 4000 160 132 213
325 2 2 4000 4000 161 133 212
326 2 2 4000 4000 47 48 184
327 2 2 4000 4000 22 23 185
328 2 2 4000 4000 3 4 186
329 2 2 4000 4000 28 29 187
330 2 2 4000 4000 164 127 214
331 2 2 4000 4000 165 126 215
332 2 2 4000 4000 64 164 214
333 2 2 4000 4000 65 165 215
334 2 2 4000 4000 164 100 258
335 2 2 4000 4000 165 101 259
336 2 2 4000 4000 98 170 250
337 2 2 4000 4000 99 171 251
338 2 2 4000 4000 103 173 263
339 2 2 4000 4000 102 172 262
340 2 2 4000 4000 233 111 298
341 2 2 4000 4000 232 110 299
342 2 2 4000 4000 35 36 192
343 2 2 4000 4000 10 11 193
344 2 2 4000 4000 158 94 205
345 2 2 4000 4000 159 95 204
346 2 2 4000 4000 42 159 229
347 2 2 4000 4000 17 158 228
348 2 2 4000 4000 51 156 307
349 2 2 4000 4000 26 157 306
350 2 2 4000 4000 156 51 308
351 2 2 4000 4000 157 26 309
352 2 2 4000 4000 92 156 308
353 2 2 4000 4000 93 157 309
354 2 2 4000 4000 156 90 307
355 2 2 4000 4000 157 91 306
356 2 2 4000 4000 155 82 259
357 2 2 4000 4000 154 83 258
358 2 2 4000 4000 96 167 200
359 2 2 4000 4000 97 166 201
360 2 2 4000 4000 40 41 196
361 2 2 4000 4000 15 16 197
362 2 2 4000 4000 199 92 255
363 2 2 4000 4000 198 93 254
364 2 2 4000 4000 82 155 317
365 2 2 4000 4000 83 154 316
366 2 2 4000 4000 154 12 242
367 2 2 4000 4000 155 37 243
368 2 2 4000 4000 38 39 220
369 2 2 4000 4000 13 14 221
370 2 2 4000 4000 78 161 286
371 2 2 4000 4000 79 160 287
372 2 2 4000 4000 70 217 272
373 2 2 4000 4000 71 216 273
374 2 2 4000 4000 37 38 243
375 2 2 4000 4000 12 13 242
376 2 2 4000 4000 158 99 228
377 2 2 4000 4000 159 98 229
378 2 2 4000 4000 263 56 292
379 2 2 4000 4000 262 57 293
380 2 2 4000 4000 41 42 229
381 2 2 4000 4000 16 17 228
382 2 2 4000 4000 150 250 304
383 2 2 4000 4000 151 251 305
384 2 2 4000 4000 250 76 304
385 2 2 4000 4000 251 77 305
386 2 2 4000 4000 167 9 231
387 2 2 4000 4000 166 34 230
388 2 2 4000 4000 136 194 327
389 2 2 4000 4000 137 195 326
390 2 2 4000 4000 194 55 327
391 2 2 4000 4000 195 54 326
392 2 2 4000 4000 162 66 226
393 2 2 4000 4000 163 67 227
394 2 2 4000 4000 84 175 215
395 2 2 4000 4000 85 174 214
396 2 2 4000 4000 24 25 208
397 2 2 4000 4000 49 50 209
398 2 2 4000 4000 52 1 210
399 2 2 4000 4000 27 2 211
400 2 2 4000 4000 86 179 213
401 2 2 4000 4000 87 178 212
402 2 2 4000 4000 160 95 287
403 2 2 4000 4000 161 94 286
404 2 2 4000 4000 25 26 306
405 2 2 4000 4000 50 51 307
406 2 2 4000 4000 51 52 308
407 2 2 4000 4000 26 27 309
408 2 2 4000 4000 101 166 230
409 2 2 4000 4000 100 167 231
410 2 2 4000 4000 162 103 263
411 2 2 4000 4000 163 102 262
412 2 2 4000 4000 191 84 319
413 2 2 4000 4000 190 85 318
414 2 2 4000 4000 194 139 329
415 2 2 4000 4000 195 138 328
416 2 2 4000 4000 184 142 299
417 2 2 4000 4000 185 143 298
418 2 2 4000 4000 103 162 324
419 2 2 4000 4000 102 163 325
420 2 2 4000 4000 9 10 231
421 2 2 4000 4000 34 35 230
422 2 2 4000 4000 43 44 222
423 2 2 4000 4000 18 19 223
424 2 2 4000 4000 7 8 224
425 2 2 4000 4000 32 33 225
426 2 2 4000 4000 178 63 212
427 2 2 4000 4000 179 62 213
428 2 2 4000 4000 234 112 322
429 2 2 4000 4000 235 113 323
430 2 2 4000 4000 176 86 310
431 2 2 4000 4000 177 87 311
432 2 2 4000 4000 174 64 214
433 2 2 4000 4000 175 65 215
434 2 2 4000 4000 188 54 328
435 2 2 4000 4000 189 55 329
436 2 2 4000 4000 144 186 312
437 2 2 4000 4000 145 187 313
438 2 2 4000 4000 47 184 289
439 2 2 4000 4000 22 185 288
440 2 2 4000 4000 185 111 288
441 2 2 4000 4000 184 110 289
442 2 2 4000 4000 186 4 291
443 2 2 4000 4000 187 29 290
444 2 2 4000 4000 113 187 290
445 2 2 4000 4000 112 186 291
446 2 2 4000 4000 54 195 328
447 2 2 4000 4000 55 194 329
448 2 2 4000 4000 190 58 284
449 2 2 4000 4000 191 59 285
450 2 2 4000 4000 115 190 284
451 2 2 4000 4000 114 191 285
452 2 2 4000 4000 96 168 296
453 2 2 4000 4000 97 169 297
454 2 2 4000 4000 168 81 296
455 2 2 4000 4000 169 80 297
456 2 2 4000 4000 104 168 330
457 2 2 4000 4000 105 169 331
458 2 2 4000 4000 84 191 216
459 2 2 4000 4000 85 190 217
460 2 2 4000 4000 21 22 288
461 2 2 4000 4000 46 47 289
462 2 2 4000 4000 29 30 290
463 2 2 4000 4000 4 5 291
464 2 2 4000 4000 192 101 230
465 2 2 4000 4000 193 100 231
466 2 2 4000 4000 35 192 230
467 2 2 4000 4000 10 193 231
468 2 2 4000 4000 192 155 259
469 2 2 4000 4000 193 154 258
470 2 2 4000 4000 210 92 308
471 2 2 4000 4000 211 93 309
472 2 2 4000 4000 90 209 307
473 2 2 4000 4000 91 208 306
474 2 2 4000 4000 196 98 250
475 2 2 4000 4000 197 99 251
476 2 2 4000 4000 150 196 250
477 2 2 4000 4000 151 197 251
478 2 2 4000 4000 177 108 303
479 2 2 4000 4000 176 109 302
480 2 2 4000 4000 197 16 228
481 2 2 4000 4000 196 41 229
482 2 2 4000 4000 99 197 228
483 2 2 4000 4000 98 196 229
484 2 2 4000 4000 180 46 289
485 2 2 4000 4000 181 21 288
486 2 2 4000 4000 110 180 289
487 2 2 4000 4000 111 181 288
488 2 2 4000 4000 182 112 291
489 2 2 4000 4000 183 113 290
490 2 2 4000 4000 5 182 291
491 2 2 4000 4000 30 183 290
492 2 2 4000 4000 253 117 269
493 2 2 4000 4000 252 116 268
494 2 2 4000 4000 100 193 258
495 2 2 4000 4000 101 192 259
496 2 2 4000 4000 61 198 254
497 2 2 4000 4000 60 199 255
498 2 2 4000 4000 108 189 295
499 2 2 4000 4000 109 188 294
500 2 2 4000 4000 186 112 312
501 2 2 4000 4000 187 113 313
502 2 2 4000 4000 54 176 310
503 2 2 4000 4000 55 177 311
504 2 2 4000 4000 237 120 261
505 2 2 4000 4000 236 121 260
506 2 2 4000 4000 69 238 247
507 2 2 4000 4000 68 239 246
508 2 2 4000 4000 238 120 247
509 2 2 4000 4000 239 121 246
510 2 2 4000 4000 110 184 299
511 2 2 4000 4000 111 185 298
512 2 2 4000 4000 64 174 330
513 2 2 4000 4000 65 175 331
514 2 2 4000 4000 174 104 330
515 2 2 4000 4000 175 105 331
516 2 2 4000 4000 123 271 275
517 2 2 4000 4000 122 270 274
518 2 2 4000 4000 117 238 269
519 2 2 4000 4000 116 239 268
520 2 2 4000 4000 53 237 261
521 2 2 4000 4000 53 236 260
522 2 2 4000 4000 53 261 279
523 2 2 4000 4000 53 260 278
524 2 2 4000 4000 112 182 322
525 2 2 4000 4000 113 183 323
526 2 2 4000 4000 273 121 275
527 2 2 4000 4000 272 120 274
528 2 2 4000 4000 128 218 282
529 2 2 4000 4000 129 219 283
530 2 2 4000 4000 218 68 282
531 2 2 4000 4000 219 69 283
532 2 2 4000 4000 246 121 273
533 2 2 4000 4000 247 120 272
534 2 2 4000 4000 108 253 269
535 2 2 4000 4000 109 252 268
536 2 2 4000 4000 79 232 320
537 2 2 4000 4000 78 233 321
538 2 2 4000 4000 232 137 320
539 2 2 4000 4000 233 136 321
540 2 2 4000 4000 119 293 301
541 2 2 4000 4000 118 292 300
542 2 2 4000 4000 58 190 318
543 2 2 4000 4000 59 191 319
544 2 2 4000 4000 236 53 279
545 2 2 4000 4000 237 53 278
546 2 2 4000 4000 88 188 328
547 2 2 4000 4000 89 189 329
548 2 2 4000 4000 88 202 324
549 2 2 4000 4000 89 203 325
550 2 2 4000 4000 236 123 275
551 2 2 4000 4000 237 122 274
552 2 2 4000 4000 282 114 285
553 2 2 4000 4000 283 115 284
554 2 2 4000 4000 255 92 257
555 2 2 4000 4000 254 93 256
556 2 2 4000 4000 153 255 257
557 2 2 4000 4000 152 254 256
558 2 2 4000 4000 120 238 261
559 2 2 4000 4000 121 239 260
560 2 2 4000 4000 271 71 275
561 2 2 4000 4000 270 70 274
562 2 2 4000 4000 128 282 285
563 2 2 4000 4000 129 283 284
564 2 2 4000 4000 108 269 303
565 2 2 4000 4000 109 268 302
566 2 2 4000 4000 239 116 260
567 2 2 4000 4000 238 117 261
568 2 2 4000 4000 260 116 278
569 2 2 4000 4000 261 117 279
570 2 2 4000 4000 241 140 315
571 2 2 4000 4000 240 141 314
572 2 2 4000 4000 82 241 315
573 2 2 4000 4000 83 240 314
574 2 2 4000 4000 276 131 293
575 2 2 4000 4000 277 130 292
576 2 2 4000 4000 57 276 293
577 2 2 4000 4000 56 277 292
578 2 2 4000 4000 292 130 300
579 2 2 4000 4000 293 131 301
580 2 2 4000 4000 238 69 269
581 2 2 4000 4000 239 68 268
582 2 2 4000 4000 226 88 324
583 2 2 4000 4000 227 89 325
584 2 2 4000 4000 208 25 306
585 2 2 4000 4000 209 50 307
586 2 2 4000 4000 52 210 308
587 2 2 4000 4000 27 211 309
588 2 2 4000 4000 122 264 270
589 2 2 4000 4000 123 265 271
590 2 2 4000 4000 264 118 270
591 2 2 4000 4000 265 119 271
592 2 2 4000 4000 226 66 294
593 2 2 4000 4000 227 67 295
594 2 2 4000 4000 71 273 275
595 2 2 4000 4000 70 272 274
596 2 2 4000 4000 246 114 282
597 2 2 4000 4000 247 115 283
598 2 2 4000 4000 116 252 266
599 2 2 4000 4000 117 253 267
600 2 2 4000 4000 252 66 266
601 2 2 4000 4000 253 67 267
602 2 2 4000 4000 120 237 274
603 2 2 4000 4000 121 236 275
604 2 2 4000 4000 115 247 272
605 2 2 4000 4000 114 246 273
606 2 2 4000 4000 122 237 278
607 2 2 4000 4000 123 236 279
608 2 2 4000 4000 202 103 324
609 2 2 4000 4000 203 102 325
610 2 2 4000 4000 281 128 285
611 2 2 4000 4000 280 129 284
612 2 2 4000 4000 59 281 285
613 2 2 4000 4000 58 280 284
614 2 2 4000 4000 163 227 325
615 2 2 4000 4000 162 226 324
616 2 2 4000 4000 270 118 300
617 2 2 4000 4000 271 119 301
618 2 2 4000 4000 66 264 266
619 2 2 4000 4000 67 265 267
620 2 2 4000 4000 264 122 266
621 2 2 4000 4000 265 123 267
622 2 2 4000 4000 221 151 305
623 2 2 4000 4000 220 150 304
624 2 2 4000 4000 124 220 304
625 2 2 4000 4000 125 221 305
626 2 2 4000 4000 116 266 278
627 2 2 4000 4000 117 267 279
628 2 2 4000 4000 66 252 294
629 2 2 4000 4000 67 253 295
630 2 2 4000 4000 253 108 295
631 2 2 4000 4000 252 109 294
632 2 2 4000 4000 68 246 282
633 2 2 4000 4000 69 247 283
634 2 2 4000 4000 266 122 278
635 2 2 4000 4000 267 123 279
636 2 2 4000 4000 112 234 312
637 2 2 4000 4000 113 235 313
638 2 2 4000 4000 68 218 302
639 2 2 4000 4000 69 219 303
640 2 2 4000 4000 242 125 316
641 2 2 4000 4000 243 124 317
642 2 2 4000 4000 154 242 316
643 2 2 4000 4000 155 243 317
644 2 2 4000 4000 234 74 312
645 2 2 4000 4000 235 75 313
646 2 2 4000 4000 125 240 316
647 2 2 4000 4000 124 241 317
648 2 2 4000 4000 240 83 316
649 2 2 4000 4000 241 82 317
650 2 2 4000 4000 70 270 300
651 2 2 4000 4000 71 271 301
652 2 2 4000 4000 268 68 302
653 2 2 4000 4000 269 69 303
654 2 2 4000 4000 311 133 327
655 2 2 4000 4000 310 132 326
656 2 2 4000 4000 55 311 327
657 2 2 4000 4000 54 310 326
658 2 2 4000 4000 320 137 326
659 2 2 4000 4000 321 136 327
660 2 2 4000 4000 132 320 326
661 2 2 4000 4000 133 321 327
$EndElements
