<?xml version="1.0"?>
<VTKFile type="UnstructuredGrid"  version="0.1"  >
<UnstructuredGrid>
<Piece  NumberOfPoints="331" NumberOfCells="608">
<Points>
<DataArray  type="Float64"  NumberOfComponents="3"  format="ascii">2 0 0  -2 0 0  1.985417748128361 0.241073361068592 0  1.941883634598861 0.4786313296025633 0  1.87003248474392 0.7092097757380947 0  1.770912050107057 0.9294463463727314 0  1.645967729913274 1.136129496177326 0  1.497021493585707 1.32624531959303 0  1.326245312794895 1.497021499608329 0  1.136129488878679 1.645967734951166 0  0.9294463384210869 1.770912054280402 0  0.7092097674343099 1.870032487893131 0  0.478631320904021 1.941883636742859 0  0.2410733520658991 1.985417749221486 0  -9.256143728923607e-09 2 0  -0.2410733690876745 1.985417747154668 0  -0.4786313362972283 1.941883632948774 0  -0.7092097807829291 1.870032482830667 0  -0.9294463500553003 1.770912048174296 0  -1.136129498429682 1.645967728358585 0  -1.326245320432144 1.497021492842318 0  -1.497021499180961 1.326245313277294 0  -1.64596773378652 1.136129490565959 0  -1.770912052601847 0.9294463416193066 0  -1.870032486121689 0.7092097721052164 0  -1.941883635183697 0.4786313272297903 0  -1.985417748280354 0.2410733598168194 0  -1.985417748128361 -0.241073361068592 0  -1.941883634598861 -0.4786313296025633 0  -1.87003248474392 -0.7092097757380947 0  -1.770912050107057 -0.9294463463727314 0  -1.645967729913274 -1.136129496177326 0  -1.497021493585707 -1.32624531959303 0  -1.326245312794895 -1.497021499608329 0  -1.136129488878679 -1.645967734951166 0  -0.9294463384210869 -1.770912054280402 0  -0.7092097674343099 -1.870032487893131 0  -0.478631320904021 -1.941883636742859 0  -0.2410733520658991 -1.985417749221486 0  9.256143728923607e-09 -2 0  0.2410733690876745 -1.985417747154668 0  0.4786313362972283 -1.941883632948774 0  0.7092097807829291 -1.870032482830667 0  0.9294463500553003 -1.770912048174296 0  1.136129498429682 -1.645967728358585 0  1.326245320432144 -1.497021492842318 0  1.497021499180961 -1.326245313277294 0  1.64596773378652 -1.136129490565959 0  1.770912052601847 -0.9294463416193066 0  1.870032486121689 -0.7092097721052164 0  1.941883635183697 -0.4786313272297903 0  1.985417748280354 -0.2410733598168194 0  -3.115563362854346e-14 1.536849351483719e-14 0  0.7122725843727095 -0.7001466307117064 0  -0.7122725843727338 0.7001466307117286 0  1.032489618369727 0.3309034256737597 0  -1.032489618369727 -0.3309034256737569 0  0.2330272411800227 1.024335728621813 0  -0.2330272411800454 -1.024335728621812 0  1.275594123462638 -0.3229330415941549 0  -1.275594123462642 0.3229330415941524 0  0.3657798799636607 -1.273919588771411 0  -0.3657798799636676 1.273919588771414 0  0.9131130678780122 0.9679271356601602 0  -0.9131130678780213 -0.9679271356601595 0  0.5808624640165732 -0.1487861912884578 0  -0.5808624640166182 0.1487861912884745 0  0.1530074591221522 -0.558249117431557 0  -0.1530074591221905 0.5582491174315873 0  0.3925155860497923 0.3910972806157823 0  -0.3925155860498122 -0.3910972806157609 0  1.183207964252065 -0.8317374009362417 0  -1.183207964252086 0.8317374009362394 0  1.431569770160638 0.175732135067312 0  -1.431569770160635 -0.1757321350673083 0  -0.1267322766411364 -1.471068126338466 0  0.1267322766411294 1.471068126338467 0  -0.8705994705179881 1.231470954348785 0  0.8705994705179785 -1.231470954348796 0  -1.330998333166882 -0.6474986899444817 0  1.330998333166875 0.6474986899444889 0  -0.6199734783665937 -1.388105389729186 0  0.6199734783665853 1.38810538972919 0  -0.5731861559513564 -0.7628801893375549 0  0.5731861559513455 0.7628801893375812 0  0.3373488965096674 -0.8880712603972793 0  -0.3373488965096926 0.8880712603972901 0  0.9017503041107673 -0.3694564773640063 0  -0.9017503041107926 0.3694564773640223 0  1.523881606725457 -0.6058584364923887 0  -1.523881606725467 0.6058584364923767 0  1.628508508536052 -0.1782689202108529 0  -1.628508508536054 0.1782689202108529 0  -0.6496470932484689 1.506827924378766 0  0.6496470932484525 -1.50682792437877 0  1.278652274171807 1.025020189329153 0  -1.278652274171815 -1.025020189329147 0  0.2413068032853428 -1.62664483931239 0  -0.2413068032853493 1.626644839312391 0  0.9860765515661127 1.327550074044169 0  -0.9860765515661205 -1.327550074044165 0  -1.033523199063016 0.03873795583173698 0  1.033523199063018 -0.03873795583173448 0  0.9929692454223896 0.6549259231690684 0  -0.992969245422396 -0.6549259231690691 0  0.05074588362846174 -1.196487453856476 0  -0.05074588362847491 1.196487453856479 0  -0.4732803967612051 0.4670231325319892 0  0.4732803967611722 -0.4670231325319674 0  1.215980987015447 -1.175888113098963 0  -1.215980987015455 1.175888113098956 0  1.617181420158057 0.4763106170398928 0  -1.617181420158061 -0.4763106170398866 0  -0.1946496002988832 -0.6496083051481151 0  0.1946496002988553 0.6496083051481306 0  0.2466250763020876 -0.2314663631163276 0  -0.2466250763021423 0.2314663631163529 0  0.6747122672759132 0.1735042378368604 0  -0.6747122672759336 -0.1735042378368453 0  0.08229934123425213 0.3242588921603434 0  -0.08229934123429757 -0.3242588921603171 0  0.3284357280690637 0.09165457524341604 0  -0.3284357280691089 -0.09165457524338655 0  -0.414968154338658 -1.624880468666894 0  0.4149681543386525 1.624880468666894 0  -0.5392571494227694 -1.071591760966088 0  0.5392571494227422 1.071591760966104 0  0.1035967652255781 -0.8772730776473104 0  -0.1035967652256061 0.877273077647323 0  0.6773451665155407 0.5488143599310508 0  -0.6773451665155472 -0.5488143599310372 0  0.6415180158780674 -1.005046356137479 0  -0.6415180158780899 1.005046356137481 0  1.246069177463645 0.3792520909753077 0  -1.246069177463658 -0.3792520909753024 0  -0.9406473829941874 0.9059663612311218 0  0.9406473829941651 -0.905966361231115 0  1.084634712390882 -0.5319285933053675 0  -1.084634712390905 0.5319285933053735 0  -0.3274032972468964 -1.238610776664386 0  0.3274032972468715 1.238610776664386 0  1.472935307917681 -0.8767725680728814 0  -1.47293530791769 0.8767725680728783 0  1.717835621658118 0.09122061850959652 0  -1.717835621658117 -0.09122061850959316 0  0.9212561334058761 -1.477213743492622 0  -0.9212561334058901 1.477213743492607 0  1.4918262009563 0.8794051705880948 0  -1.491826200956304 -0.8794051705880903 0  -0.1061279222978709 -1.803854307121098 0  0.1061279222978697 1.803854307121098 0  -1.284978313032272 0.06520596300839995 0  1.284978313032281 -0.06520596300840154 0  0.7242467014125734 1.609210172453347 0  -0.7242467014125735 -1.609210172453347 0  1.690645064898854 -0.4167065800309444 0  -1.690645064898864 0.4167065800309389 0  -0.4990423214197479 1.69593463443982 0  0.4990423214197397 -1.695934634439822 0  0.6253512828947018 -1.250018055271378 0  -0.625351282894716 1.250018055271374 0  0.7913554197897151 -0.02174773235779709 0  -0.7913554197897233 0.02174773235780147 0  0.7665101447591027 1.183872552670194 0  -0.7665101447591171 -1.183872552670187 0  -1.237844682568155 -1.269001738766949 0  1.23784468256815 1.269001738766952 0  1.143749578137946 0.8267690127544209 0  -1.143749578137955 -0.8267690127544167 0  0.1395412315837613 -1.378942441878985 0  -0.1395412315837716 1.378942441878988 0  -1.159821186408258 -0.1484968154531494 0  1.159821186408259 0.1484968154531506 0  0.8143380562848158 0.7465345882568355 0  -0.8143380562848249 -0.7465345882568318 0  0.4797279166329729 -0.6936002362486383 0  -0.4797279166329996 0.6936002362486535 0  -0.2263969597531289 1.091778679902096 0  0.2263969597531182 -1.091778679902093 0  1.11503504355396 -1.346937216092296 0  -1.115035043553966 1.346937216092293 0  1.669713948123136 0.693187418553295 0  -1.669713948123138 -0.693187418553292 0  1.418549930261719 -1.114826553898634 0  -1.418549930261727 1.114826553898636 0  1.774149314642 0.327896870317823 0  -1.774149314642003 -0.3278968703178212 0  0.6984829260213908 -0.4842800291875856 0  -0.6984829260214142 0.4842800291876154 0  0.3438209097123823 0.7929715766545167 0  -0.3438209097123996 -0.7929715766545159 0  -0.9436696862077529 -1.540600077161917 0  0.9436696862077514 1.540600077161918 0  -0.9281685159973743 0.701553155969481 0  0.928168515997345 -0.7015531559694695 0  0.1183587213187221 -1.804505370702731 0  -0.1183587213187256 1.804505370702732 0  -1.47503376267506 0.3943317575865562 0  1.475033762675053 -0.3943317575865619 0  1.074795281247044 1.109897815020003 0  -1.074795281247056 -1.109897815019996 0  1.069507453036816 -0.2552043166000085 0  -1.069507453036818 0.2552043166000154 0  0.4400433026696902 -1.476885925741425 0  -0.440043302669709 1.476885925741421 0  1.315063409671708 -0.6243390102560457 0  -1.315063409671727 0.6243390102560449 0  -1.663134792968649 0.7485162071162719 0  1.663134792968651 -0.7485162071162725 0  1.820485550803327 -0.1101190881230698 0  -1.820485550803327 0.1101190881230699 0  -0.4636148214024255 1.057556862995852 0  0.4636148214024088 -1.057556862995847 0  0.6700514615541724 0.9470706171814175 0  -0.670051461554186 -0.9470706171814096 0  -0.4253809416286554 -0.5696418006528425 0  0.4253809416286357 0.5696418006528572 0  0.2138074330539531 -0.7498754901633188 0  -0.2138074330539959 0.7498754901633458 0  -0.3212129661982123 -1.78985444875697 0  0.3212129661982106 1.789854448756971 0  0.7510768820654723 -1.67302812791874 0  -0.7510768820654751 1.673028127918741 0  1.438412640190248 1.130302549026739 0  -1.438412640190251 -1.130302549026738 0  0.7497150032192286 -0.2531313822707569 0  -0.7497150032192589 0.2531313822707734 0  -0.3156825102817451 1.810877244911677 0  0.3156825102817414 -1.810877244911677 0  -1.125993144403121 -1.456028224906505 0  1.125993144403117 1.456028224906506 0  1.048043688531077 -1.080176182705874 0  -1.04804368853109 1.080176182705875 0  1.453510518400375 0.4299080171292554 0  -1.45351051840038 -0.4299080171292489 0  -0.1378298586006766 -0.1378626922506455 0  0.1378298586006264 0.1378626922506779 0  -0.1081211248276727 0.3692365830219489 0  0.1081211248276251 -0.369236583021924 0  0.3961934508101924 1.447133483549341 0  -0.3961934508102037 -1.447133483549338 0  0.5721063238627341 1.731283584542675 0  -0.5721063238627371 -1.731283584542674 0  -1.152801500553369 -0.5565766304357221 0  1.152801500553365 0.5565766304357284 0  -0.0384501677253772 -0.5110432077687597 0  0.03845016772533206 0.5110432077687933 0  -0.1133920200170013 -1.264729934696046 0  0.1133920200169825 1.264729934696052 0  0.02795146967933387 -1.612167691771197 0  -0.02795146967933637 1.6121676917712 0  0.4307841581861562 -0.2810259139325595 0  -0.4307841581862041 0.2810259139325818 0  -1.429669960084117 0.1990807575915823 0  1.429669960084121 -0.1990807575915932 0  -1.500484476116474 0.0224979653919689 0  1.500484476116483 -0.02249796539196176 0  0.8080953124624252 1.409867653211764 0  -0.8080953124624316 -1.409867653211761 0  0.05979974803242187 -0.1815996907423964 0  -0.05979974803249549 0.1815996907424226 0  -0.9109381971225614 -0.1509939146368475 0  0.9109381971225545 0.1509939146368543 0  0.5369376407171639 0.03835486464472671 0  -0.5369376407171991 -0.03835486464470743 0  0.3875828797524622 -0.09557446442965443 0  -0.3875828797525114 0.09557446442967693 0  0.289288963919213 -0.4241301346116911 0  -0.2892889639192494 0.4241301346117265 0  0.4612795891389725 0.2238225768418712 0  -0.4612795891389976 -0.2238225768418484 0  0.232430501717698 0.4541739348063254 0  -0.2324305017177274 -0.4541739348063016 0  0.2724651008017341 0.270478325319736 0  -0.27246510080177 -0.2704783253197099 0  -0.8996636474554912 -0.48810933744541 0  0.8996636474554867 0.4881093374454104 0  0.1933788817927717 -0.04652054179904484 0  -0.1933788817928276 0.04652054179907263 0  0.03747917361041149 1.033934432950373 0  -0.03747917361043145 -1.033934432950372 0  0.01782141139432474 -0.6967128727166 0  -0.01782141139436131 0.6967128727166224 0  0.1303834210114372 0.8342280381405552 0  -0.1303834210114745 -0.8342280381405393 0  -0.7719582992911239 1.368265728637849 0  0.7719582992911135 -1.368265728637861 0  -1.314087494872345 1.308261058988486 0  1.314087494872345 -1.308261058988488 0  -1.774430391895795 -0.5415505304392044 0  1.774430391895794 0.541550530439206 0  0.7844904922640383 0.3288497543139796 0  -0.7844904922640507 -0.3288497543139674 0  0.5866249896409041 -0.3268493298422654 0  -0.5866249896409402 0.3268493298422869 0  1.311306596608232 0.8446732656540396 0  -1.311306596608239 -0.844673265654034 0  -1.26774357559561 1.015880163742517 0  1.267743575595597 -1.015880163742519 0  0.5726171362305053 0.3698912528097653 0  -0.5726171362305191 -0.3698912528097458 0  0.3218224338978927 -0.5785756221974345 0  -0.3218224338979281 0.5785756221974604 0  -0.2291740777603549 -1.622863181109647 0  0.2291740777603515 1.622863181109645 0  -1.737915517179673 0.5917844645949188 0  1.73791551717967 -0.5917844645949224 0  1.813388101540457 -0.2849598550822953 0  -1.813388101540459 0.2849598550822942 0  0.5653482373895082 -0.8699629732292465 0  -0.565348237389533 0.8699629732292586 0  1.59987276647878 0.2945796111880501 0  -1.599872766478784 -0.2945796111880433 0  0.5025820231557067 1.248357119307377 0  -0.5025820231557303 -1.248357119307362 0  0.5502477304609631 1.555004677516178 0  -0.5502477304609682 -1.555004677516177 0  0.4139041950290163 0.9496174761976299 0  -0.4139041950290276 -0.9496174761976355 0  0.8139611717262022 -1.058005733763195 0  -0.8139611717262214 1.058005733763198 0  1.512646084160948 0.6252619826510054 0  -1.512646084160953 -0.6252619826509999 0  0.9139822500125205 -0.1778443850400094 0  -0.9139822500125395 0.1778443850400236 0  0.7643063289591588 -0.8739924754720335 0  -0.7643063289591853 0.8739924754720455 0  0.8639301289321444 -0.5420058754323459 0  -0.8639301289321627 0.5420058754323699 0  0.966042486930791 0.7990391649601215 0  -0.9660424869307995 -0.7990391649601194 0  </DataArray>
</Points>
<Cells>
<DataArray  type="UInt32"  Name="connectivity"  format="ascii">60 197 206  59 198 205  55 133 244  56 134 243  55 244 276  56 243 275  59 137 205  60 138 206  71 136 194  72 135 193  78 179 231  77 180 232  57 140 248  58 139 247  57 140 317  58 139 318  126 140 317  125 139 318  71 137 194  72 138 193  90 142 206  89 141 205  57 248 279  58 247 280  79 134 234  80 133 233  72 135 232  71 136 231  83 130 174  84 129 173  71 141 205  72 142 206  85 127 178  86 128 177  77 146 180  78 145 179  62 170 177  61 169 178  106 170 177  105 169 178  59 137 201  60 138 202  87 137 201  88 138 202  59 152 201  60 151 202  102 152 201  101 151 202  74 134 171  73 133 172  79 234 322  80 233 321  125 139 314  126 140 313  75 139 240  76 140 239  83 130 215  84 129 216  72 232 297  71 231 298  109 179 231  110 180 232  99 163 199  100 164 200  130 174 275  129 173 276  98 170 204  97 169 203  127 178 280  128 177 279  55 133 172  56 134 171  86 128 218  85 127 217  63 163 199  64 164 200  18 19 146  43 44 145  30 31 148  5 6 147  42 158 221  17 157 222  41 42 158  16 17 157  75 240 303  76 239 304  47 48 141  22 23 142  0 2 143  1 27 144  105 178 280  106 177 279  74 151 171  73 152 172  103 173 276  104 174 275  62 170 204  61 169 203  80 133 244  79 134 243  90 197 206  89 198 205  63 167 199  64 168 200  73 133 233  74 134 234  53 175 187  54 176 188  108 175 187  107 176 188  92 144 255  91 143 256  7 8 166  32 33 165  75 169 247  76 170 248  83 214 318  84 213 317  38 39 149  13 14 150  7 166 223  32 165 224  90 142 207  89 141 208  92 144 210  91 143 209  31 148 224  6 147 223  18 146 222  43 145 221  75 139 247  76 140 248  130 215 300  129 216 299  117 262 291  118 261 292  117 161 262  118 162 261  125 214 318  126 213 317  95 167 199  96 168 200  87 137 327  88 138 328  71 137 205  72 138 206  77 160 320  78 159 319  19 146 180  44 145 179  30 148 182  5 147 181  85 212 309  86 211 310  10 11 153  35 36 154  132 160 320  131 159 319  94 158 221  93 157 222  74 144 255  73 143 256  105 169 247  106 170 248  131 212 309  132 211 310  94 159 203  93 160 204  61 159 203  62 160 204  47 141 183  22 142 184  2 143 185  27 144 186  37 219 242  12 220 241  101 151 171  102 152 172  82 163 313  81 164 314  93 146 222  94 145 221  96 148 224  95 147 223  65 161 263  66 162 264  117 161 263  118 162 264  126 163 313  125 164 314  114 216 271  113 215 272  91 155 198  92 156 197  0 143 209  1 144 210  48 141 208  23 142 207  103 244 276  104 243 275  80 147 321  79 148 322  76 170 250  75 169 249  71 141 298  72 142 297  95 166 223  96 165 224  98 157 204  97 158 203  73 143 311  74 144 312  19 20 180  44 45 179  29 30 182  4 5 181  114 189 216  113 190 215  55 172 262  56 171 261  79 168 243  80 167 244  104 168 243  103 167 244  106 248 279  105 247 280  64 168 330  63 167 329  123 219 242  124 220 241  39 149 195  14 150 196  85 175 217  86 176 218  88 188 226  87 187 225  35 154 191  10 153 192  80 147 295  79 148 296  188 226 294  187 225 293  175 217 301  176 218 302  94 145 286  93 146 285  78 145 286  77 146 285  95 147 295  96 148 296  123 240 303  124 239 304  100 165 200  99 166 199  38 149 219  13 150 220  147 181 321  148 182 322  89 155 198  90 156 197  70 215 300  69 216 299  81 164 258  82 163 257  60 151 253  59 152 254  74 151 255  73 152 256  61 159 212  62 160 211  131 159 212  132 160 211  46 47 183  21 22 184  2 3 185  27 28 186  126 163 213  125 164 214  63 163 213  64 164 214  99 163 257  100 164 258  97 169 249  98 170 250  102 172 262  101 171 261  110 232 297  109 231 298  34 35 191  9 10 192  93 157 204  94 158 203  41 158 228  16 157 227  50 155 306  25 156 305  50 155 307  25 156 308  91 155 307  92 156 308  89 155 306  90 156 305  81 154 258  82 153 257  95 166 199  96 165 200  39 40 195  14 15 196  91 198 254  92 197 253  81 154 316  82 153 315  11 153 241  36 154 242  37 38 219  12 13 220  77 160 285  78 159 286  69 216 271  70 215 272  36 37 242  11 12 241  98 157 227  97 158 228  55 262 291  56 261 292  40 41 228  15 16 227  149 249 303  150 250 304  75 249 303  76 250 304  8 166 230  33 165 229  135 193 326  136 194 325  54 193 326  53 194 325  65 161 225  66 162 226  83 174 214  84 173 213  23 24 207  48 49 208  0 51 209  1 26 210  85 178 212  86 177 211  94 159 286  93 160 285  24 25 305  49 50 306  50 51 307  25 26 308  100 165 229  99 166 230  102 161 262  101 162 261  83 190 318  84 189 317  138 193 328  137 194 327  141 183 298  142 184 297  102 161 323  101 162 324  8 9 230  33 34 229  42 43 221  17 18 222  6 7 223  31 32 224  62 177 211  61 178 212  111 233 321  112 234 322  85 175 309  86 176 310  63 173 213  64 174 214  53 187 327  54 188 328  143 185 311  144 186 312  46 183 288  21 184 287  110 184 287  109 183 288  3 185 290  28 186 289  112 186 289  111 185 290  53 194 327  54 193 328  57 189 283  58 190 284  114 189 283  113 190 284  95 167 295  96 168 296  80 167 295  79 168 296  103 167 329  104 168 330  83 190 215  84 189 216  20 21 287  45 46 288  28 29 289  3 4 290  100 191 229  99 192 230  34 191 229  9 192 230  154 191 258  153 192 257  91 209 307  92 210 308  89 208 306  90 207 305  97 195 249  98 196 250  149 195 249  150 196 250  107 176 302  108 175 301  15 196 227  40 195 228  98 196 227  97 195 228  45 179 288  20 180 287  109 179 288  110 180 287  111 181 290  112 182 289  4 181 290  29 182 289  116 252 268  115 251 267  99 192 257  100 191 258  60 197 253  59 198 254  107 188 294  108 187 293  111 185 311  112 186 312  53 175 309  54 176 310  119 236 260  120 235 259  68 237 246  67 238 245  119 237 246  120 238 245  109 183 298  110 184 297  63 173 329  64 174 330  103 173 329  104 174 330  122 270 274  121 269 273  116 237 268  115 238 267  52 236 260  52 235 259  52 260 278  52 259 277  111 181 321  112 182 322  120 272 274  119 271 273  127 217 281  128 218 282  67 217 281  68 218 282  120 245 272  119 246 271  107 252 268  108 251 267  78 231 319  77 232 320  136 231 319  135 232 320  118 292 300  117 291 299  57 189 317  58 190 318  52 235 278  52 236 277  87 187 327  88 188 328  87 201 323  88 202 324  122 235 274  121 236 273  113 281 284  114 282 283  91 254 256  92 253 255  152 254 256  151 253 255  119 237 260  120 238 259  70 270 274  69 269 273  127 281 284  128 282 283  107 268 302  108 267 301  115 238 259  116 237 260  115 259 277  116 260 278  139 240 314  140 239 313  81 240 314  82 239 313  130 275 292  129 276 291  56 275 292  55 276 291  129 291 299  130 292 300  68 237 268  67 238 267  87 225 323  88 226 324  24 207 305  49 208 306  51 209 307  26 210 308  121 263 269  122 264 270  117 263 269  118 264 270  65 225 293  66 226 294  70 272 274  69 271 273  113 245 281  114 246 282  115 251 265  116 252 266  65 251 265  66 252 266  119 236 273  120 235 274  114 246 271  113 245 272  121 236 277  122 235 278  102 201 323  101 202 324  127 280 284  128 279 283  58 280 284  57 279 283  162 226 324  161 225 323  117 269 299  118 270 300  65 263 265  66 264 266  121 263 265  122 264 266  150 220 304  149 219 303  123 219 303  124 220 304  115 265 277  116 266 278  65 251 293  66 252 294  107 252 294  108 251 293  67 245 281  68 246 282  121 265 277  122 266 278  111 233 311  112 234 312  67 217 301  68 218 302  124 241 315  123 242 316  153 241 315  154 242 316  73 233 311  74 234 312  124 239 315  123 240 316  82 239 315  81 240 316  69 269 299  70 270 300  67 267 301  68 268 302  132 310 326  131 309 325  54 310 326  53 309 325  136 319 325  135 320 326  131 319 325  132 320 326  </DataArray>
<DataArray  type="UInt32"  Name="offsets"  format="ascii">3 6 9 12 15 18 21 24 27 30 33 36 39 42 45 48 51 54 57 60 63 66 69 72 75 78 81 84 87 90 93 96 99 102 105 108 111 114 117 120 123 126 129 132 135 138 141 144 147 150 153 156 159 162 165 168 171 174 177 180 183 186 189 192 195 198 201 204 207 210 213 216 219 222 225 228 231 234 237 240 243 246 249 252 255 258 261 264 267 270 273 276 279 282 285 288 291 294 297 300 303 306 309 312 315 318 321 324 327 330 333 336 339 342 345 348 351 354 357 360 363 366 369 372 375 378 381 384 387 390 393 396 399 402 405 408 411 414 417 420 423 426 429 432 435 438 441 444 447 450 453 456 459 462 465 468 471 474 477 480 483 486 489 492 495 498 501 504 507 510 513 516 519 522 525 528 531 534 537 540 543 546 549 552 555 558 561 564 567 570 573 576 579 582 585 588 591 594 597 600 603 606 609 612 615 618 621 624 627 630 633 636 639 642 645 648 651 654 657 660 663 666 669 672 675 678 681 684 687 690 693 696 699 702 705 708 711 714 717 720 723 726 729 732 735 738 741 744 747 750 753 756 759 762 765 768 771 774 777 780 783 786 789 792 795 798 801 804 807 810 813 816 819 822 825 828 831 834 837 840 843 846 849 852 855 858 861 864 867 870 873 876 879 882 885 888 891 894 897 900 903 906 909 912 915 918 921 924 927 930 933 936 939 942 945 948 951 954 957 960 963 966 969 972 975 978 981 984 987 990 993 996 999 1002 1005 1008 1011 1014 1017 1020 1023 1026 1029 1032 1035 1038 1041 1044 1047 1050 1053 1056 1059 1062 1065 1068 1071 1074 1077 1080 1083 1086 1089 1092 1095 1098 1101 1104 1107 1110 1113 1116 1119 1122 1125 1128 1131 1134 1137 1140 1143 1146 1149 1152 1155 1158 1161 1164 1167 1170 1173 1176 1179 1182 1185 1188 1191 1194 1197 1200 1203 1206 1209 1212 1215 1218 1221 1224 1227 1230 1233 1236 1239 1242 1245 1248 1251 1254 1257 1260 1263 1266 1269 1272 1275 1278 1281 1284 1287 1290 1293 1296 1299 1302 1305 1308 1311 1314 1317 1320 1323 1326 1329 1332 1335 1338 1341 1344 1347 1350 1353 1356 1359 1362 1365 1368 1371 1374 1377 1380 1383 1386 1389 1392 1395 1398 1401 1404 1407 1410 1413 1416 1419 1422 1425 1428 1431 1434 1437 1440 1443 1446 1449 1452 1455 1458 1461 1464 1467 1470 1473 1476 1479 1482 1485 1488 1491 1494 1497 1500 1503 1506 1509 1512 1515 1518 1521 1524 1527 1530 1533 1536 1539 1542 1545 1548 1551 1554 1557 1560 1563 1566 1569 1572 1575 1578 1581 1584 1587 1590 1593 1596 1599 1602 1605 1608 1611 1614 1617 1620 1623 1626 1629 1632 1635 1638 1641 1644 1647 1650 1653 1656 1659 1662 1665 1668 1671 1674 1677 1680 1683 1686 1689 1692 1695 1698 1701 1704 1707 1710 1713 1716 1719 1722 1725 1728 1731 1734 1737 1740 1743 1746 1749 1752 1755 1758 1761 1764 1767 1770 1773 1776 1779 1782 1785 1788 1791 1794 1797 1800 1803 1806 1809 1812 1815 1818 1821 1824 </DataArray>
<DataArray  type="UInt8"  Name="types"  format="ascii">5 5 5 5 5 5 5 5 5 5 5 5 5 5 5 5 5 5 5 5 5 5 5 5 5 5 5 5 5 5 5 5 5 5 5 5 5 5 5 5 5 5 5 5 5 5 5 5 5 5 5 5 5 5 5 5 5 5 5 5 5 5 5 5 5 5 5 5 5 5 5 5 5 5 5 5 5 5 5 5 5 5 5 5 5 5 5 5 5 5 5 5 5 5 5 5 5 5 5 5 5 5 5 5 5 5 5 5 5 5 5 5 5 5 5 5 5 5 5 5 5 5 5 5 5 5 5 5 5 5 5 5 5 5 5 5 5 5 5 5 5 5 5 5 5 5 5 5 5 5 5 5 5 5 5 5 5 5 5 5 5 5 5 5 5 5 5 5 5 5 5 5 5 5 5 5 5 5 5 5 5 5 5 5 5 5 5 5 5 5 5 5 5 5 5 5 5 5 5 5 5 5 5 5 5 5 5 5 5 5 5 5 5 5 5 5 5 5 5 5 5 5 5 5 5 5 5 5 5 5 5 5 5 5 5 5 5 5 5 5 5 5 5 5 5 5 5 5 5 5 5 5 5 5 5 5 5 5 5 5 5 5 5 5 5 5 5 5 5 5 5 5 5 5 5 5 5 5 5 5 5 5 5 5 5 5 5 5 5 5 5 5 5 5 5 5 5 5 5 5 5 5 5 5 5 5 5 5 5 5 5 5 5 5 5 5 5 5 5 5 5 5 5 5 5 5 5 5 5 5 5 5 5 5 5 5 5 5 5 5 5 5 5 5 5 5 5 5 5 5 5 5 5 5 5 5 5 5 5 5 5 5 5 5 5 5 5 5 5 5 5 5 5 5 5 5 5 5 5 5 5 5 5 5 5 5 5 5 5 5 5 5 5 5 5 5 5 5 5 5 5 5 5 5 5 5 5 5 5 5 5 5 5 5 5 5 5 5 5 5 5 5 5 5 5 5 5 5 5 5 5 5 5 5 5 5 5 5 5 5 5 5 5 5 5 5 5 5 5 5 5 5 5 5 5 5 5 5 5 5 5 5 5 5 5 5 5 5 5 5 5 5 5 5 5 5 5 5 5 5 5 5 5 5 5 5 5 5 5 5 5 5 5 5 5 5 5 5 5 5 5 5 5 5 5 5 5 5 5 5 5 5 5 5 5 5 5 5 5 5 5 5 5 5 5 5 5 5 5 5 5 5 5 5 5 5 5 5 5 5 5 5 5 5 5 5 5 5 5 5 5 5 5 5 5 5 5 5 5 5 5 5 5 5 5 5 5 5 5 5 5 5 5 5 5 5 5 5 5 5 5 5 5 5 5 5 5 5 5 5 5 5 5 5 5 5 5 5 5 5 5 5 5 5 5 5 5 5 </DataArray>
</Cells>
<PointData  Tensors="epsilon"> 
<DataArray  type="Float64"  Name="epsilon"  NumberOfComponents="9" format="ascii">2.6722304836440695e-08 -1.5504130290484725e-09 0.0000000000000000e+00 -1.5504130290484725e-09 -4.6318028411479964e-08 0.0000000000000000e+00 0.0000000000000000e+00 0.0000000000000000e+00 0.0000000000000000e+00  -3.8080433128205514e-08 -2.1913651328196942e-09 0.0000000000000000e+00 -2.1913651328196942e-09 1.2487885186404974e-08 0.0000000000000000e+00 0.0000000000000000e+00 0.0000000000000000e+00 0.0000000000000000e+00  2.8761836816061711e-08 5.1387360159484787e-10 0.0000000000000000e+00 5.1387360159484787e-10 -5.1260654489998376e-08 0.0000000000000000e+00 0.0000000000000000e+00 0.0000000000000000e+00 0.0000000000000000e+00  2.8469733719841259e-08 5.8683236549315571e-09 0.0000000000000000e+00 5.8683236549315571e-09 -5.0136797029434129e-08 0.0000000000000000e+00 0.0000000000000000e+00 0.0000000000000000e+00 0.0000000000000000e+00  2.7277913923543120e-08 1.5380349520169072e-08 0.0000000000000000e+00 1.5380349520169072e-08 -6.0261606066952622e-08 0.0000000000000000e+00 0.0000000000000000e+00 0.0000000000000000e+00 0.0000000000000000e+00  4.0436386184248297e-08 2.9167349039699721e-08 0.0000000000000000e+00 2.9167349039699721e-08 -9.2075676862561972e-08 0.0000000000000000e+00 0.0000000000000000e+00 0.0000000000000000e+00 0.0000000000000000e+00  4.7981380020739701e-08 3.9225571434059118e-08 0.0000000000000000e+00 3.9225571434059118e-08 -1.3172630480969284e-07 0.0000000000000000e+00 0.0000000000000000e+00 0.0000000000000000e+00 0.0000000000000000e+00  5.2976115396452624e-08 1.4452802086925952e-08 0.0000000000000000e+00 1.4452802086925952e-08 -1.4103800227588184e-07 0.0000000000000000e+00 0.0000000000000000e+00 0.0000000000000000e+00 0.0000000000000000e+00  5.2675703033901596e-08 -1.5314171191972252e-09 0.0000000000000000e+00 -1.5314171191972252e-09 -1.1764454648298809e-07 0.0000000000000000e+00 0.0000000000000000e+00 0.0000000000000000e+00 0.0000000000000000e+00  5.5087892858661534e-08 -6.8670794798588023e-09 0.0000000000000000e+00 -6.8670794798588023e-09 -1.1234050929595398e-07 0.0000000000000000e+00 0.0000000000000000e+00 0.0000000000000000e+00 0.0000000000000000e+00  5.5733728482284983e-08 -8.6894799169288237e-09 0.0000000000000000e+00 -8.6894799169288237e-09 -1.0700807146016504e-07 0.0000000000000000e+00 0.0000000000000000e+00 0.0000000000000000e+00 0.0000000000000000e+00  5.7545774481344020e-08 -1.0377006827438148e-08 0.0000000000000000e+00 -1.0377006827438148e-08 -1.0505490444180167e-07 0.0000000000000000e+00 0.0000000000000000e+00 0.0000000000000000e+00 0.0000000000000000e+00  5.6304295203700476e-08 -9.6726904899929069e-09 0.0000000000000000e+00 -9.6726904899929069e-09 -1.0171816769071197e-07 0.0000000000000000e+00 0.0000000000000000e+00 0.0000000000000000e+00 0.0000000000000000e+00  5.6284318295023956e-08 -9.2397173691826166e-09 0.0000000000000000e+00 -9.2397173691826166e-09 -1.0045035265430709e-07 0.0000000000000000e+00 0.0000000000000000e+00 0.0000000000000000e+00 0.0000000000000000e+00  5.6186070814805111e-08 -8.4786844589053161e-09 0.0000000000000000e+00 -8.4786844589053161e-09 -1.0008267758391036e-07 0.0000000000000000e+00 0.0000000000000000e+00 0.0000000000000000e+00 0.0000000000000000e+00  5.7270637047051109e-08 -7.3377108610911112e-09 0.0000000000000000e+00 -7.3377108610911112e-09 -1.0083682235088419e-07 0.0000000000000000e+00 0.0000000000000000e+00 0.0000000000000000e+00 0.0000000000000000e+00  5.8101876741689207e-08 -7.2605811865674638e-09 0.0000000000000000e+00 -7.2605811865674638e-09 -1.0300740543925681e-07 0.0000000000000000e+00 0.0000000000000000e+00 0.0000000000000000e+00 0.0000000000000000e+00  5.7210493427034925e-08 -6.1596491858735064e-09 0.0000000000000000e+00 -6.1596491858735064e-09 -1.0377362980689430e-07 0.0000000000000000e+00 0.0000000000000000e+00 0.0000000000000000e+00 0.0000000000000000e+00  5.9900776334445648e-08 -6.4609621722185058e-09 0.0000000000000000e+00 -6.4609621722185058e-09 -1.0910173275283326e-07 0.0000000000000000e+00 0.0000000000000000e+00 0.0000000000000000e+00 0.0000000000000000e+00  5.8278556898161443e-08 -1.0195885058514429e-08 0.0000000000000000e+00 -1.0195885058514429e-08 -1.1437540647766000e-07 0.0000000000000000e+00 0.0000000000000000e+00 0.0000000000000000e+00 0.0000000000000000e+00  5.6032988731668276e-08 -1.6435025754539218e-08 0.0000000000000000e+00 -1.6435025754539218e-08 -1.2001784031656227e-07 0.0000000000000000e+00 0.0000000000000000e+00 0.0000000000000000e+00 0.0000000000000000e+00  5.5569429844684112e-08 -3.2166043333425324e-08 0.0000000000000000e+00 -3.2166043333425324e-08 -1.4242086676880868e-07 0.0000000000000000e+00 0.0000000000000000e+00 0.0000000000000000e+00 0.0000000000000000e+00  5.9070432262238043e-08 -5.3169385792528301e-08 0.0000000000000000e+00 -5.3169385792528301e-08 -1.3776820477769112e-07 0.0000000000000000e+00 0.0000000000000000e+00 0.0000000000000000e+00 0.0000000000000000e+00  4.8791014732164130e-08 -4.8129654613208328e-08 0.0000000000000000e+00 -4.8129654613208335e-08 -1.0383356005971575e-07 0.0000000000000000e+00 0.0000000000000000e+00 0.0000000000000000e+00 0.0000000000000000e+00  2.9967855867316002e-08 -3.3868694893208544e-08 0.0000000000000000e+00 -3.3868694893208544e-08 -6.8486140260413517e-08 0.0000000000000000e+00 0.0000000000000000e+00 0.0000000000000000e+00 0.0000000000000000e+00  3.2937816071607763e-08 -6.2533336828421631e-08 0.0000000000000000e+00 -6.2533336828421631e-08 -8.3767075559417900e-08 0.0000000000000000e+00 0.0000000000000000e+00 0.0000000000000000e+00 0.0000000000000000e+00  -4.6591327190679794e-08 -4.4288341326028400e-08 0.0000000000000000e+00 -4.4288341326028400e-08 -3.3074563397851302e-08 0.0000000000000000e+00 0.0000000000000000e+00 0.0000000000000000e+00 0.0000000000000000e+00  -4.6787058961027521e-08 3.4940338344643283e-08 0.0000000000000000e+00 3.4940338344643283e-08 -2.1849540708351481e-08 0.0000000000000000e+00 0.0000000000000000e+00 0.0000000000000000e+00 0.0000000000000000e+00  2.7474409739134165e-08 5.8104962257806631e-08 0.0000000000000000e+00 5.8104962257806631e-08 -8.4511164661142045e-08 0.0000000000000000e+00 0.0000000000000000e+00 0.0000000000000000e+00 0.0000000000000000e+00  2.1131872670462334e-08 2.3776082543587328e-08 0.0000000000000000e+00 2.3776082543587325e-08 -6.4544256627944052e-08 0.0000000000000000e+00 0.0000000000000000e+00 0.0000000000000000e+00 0.0000000000000000e+00  4.0620637008839706e-08 3.6179414267305263e-08 0.0000000000000000e+00 3.6179414267305270e-08 -9.6150745226793125e-08 0.0000000000000000e+00 0.0000000000000000e+00 0.0000000000000000e+00 0.0000000000000000e+00  4.9307803249115831e-08 4.0840210522812440e-08 0.0000000000000000e+00 4.0840210522812440e-08 -1.3369844771751276e-07 0.0000000000000000e+00 0.0000000000000000e+00 0.0000000000000000e+00 0.0000000000000000e+00  5.2100560159178478e-08 1.6773708913472023e-08 0.0000000000000000e+00 1.6773708913472023e-08 -1.4142925681040715e-07 0.0000000000000000e+00 0.0000000000000000e+00 0.0000000000000000e+00 0.0000000000000000e+00  5.3095321211014330e-08 -2.1301282702306028e-11 0.0000000000000000e+00 -2.1301282702306028e-11 -1.1859862955907453e-07 0.0000000000000000e+00 0.0000000000000000e+00 0.0000000000000000e+00 0.0000000000000000e+00  5.4726352435694349e-08 -5.5802281232425536e-09 0.0000000000000000e+00 -5.5802281232425536e-09 -1.1226436850038956e-07 0.0000000000000000e+00 0.0000000000000000e+00 0.0000000000000000e+00 0.0000000000000000e+00  5.4812916057851307e-08 -6.9635418487660433e-09 0.0000000000000000e+00 -6.9635418487660433e-09 -1.0674613122057729e-07 0.0000000000000000e+00 0.0000000000000000e+00 0.0000000000000000e+00 0.0000000000000000e+00  5.6654872233150099e-08 -8.5786446909384774e-09 0.0000000000000000e+00 -8.5786446909384774e-09 -1.0475041560132614e-07 0.0000000000000000e+00 0.0000000000000000e+00 0.0000000000000000e+00 0.0000000000000000e+00  5.5238198122135525e-08 -8.1727906194537421e-09 0.0000000000000000e+00 -8.1727906194537421e-09 -1.0104638428956942e-07 0.0000000000000000e+00 0.0000000000000000e+00 0.0000000000000000e+00 0.0000000000000000e+00  5.4942455245553574e-08 -8.0813267761274001e-09 0.0000000000000000e+00 -8.0813267761274001e-09 -9.9684017734794097e-08 0.0000000000000000e+00 0.0000000000000000e+00 0.0000000000000000e+00 0.0000000000000000e+00  5.4606777619249455e-08 -7.5498583939476643e-09 0.0000000000000000e+00 -7.5498583939476643e-09 -9.9115503584124888e-08 0.0000000000000000e+00 0.0000000000000000e+00 0.0000000000000000e+00 0.0000000000000000e+00  5.5298840586147004e-08 -6.6607630137916897e-09 0.0000000000000000e+00 -6.6607630137916897e-09 -9.9723762334122506e-08 0.0000000000000000e+00 0.0000000000000000e+00 0.0000000000000000e+00 0.0000000000000000e+00  5.6531134419374643e-08 -6.4810768708398320e-09 0.0000000000000000e+00 -6.4810768708398320e-09 -1.0192839969301346e-07 0.0000000000000000e+00 0.0000000000000000e+00 0.0000000000000000e+00 0.0000000000000000e+00  5.5172578135479715e-08 -6.2443226238708482e-09 0.0000000000000000e+00 -6.2443226238708482e-09 -1.0279516686103576e-07 0.0000000000000000e+00 0.0000000000000000e+00 0.0000000000000000e+00 0.0000000000000000e+00  5.7870007164579686e-08 -5.7218057473172721e-09 0.0000000000000000e+00 -5.7218057473172721e-09 -1.0792553461833241e-07 0.0000000000000000e+00 0.0000000000000000e+00 0.0000000000000000e+00 0.0000000000000000e+00  5.7686647543512781e-08 -9.2303191049139721e-09 0.0000000000000000e+00 -9.2303191049139721e-09 -1.1360999365264996e-07 0.0000000000000000e+00 0.0000000000000000e+00 0.0000000000000000e+00 0.0000000000000000e+00  5.4923393763751077e-08 -1.7278972189628452e-08 0.0000000000000000e+00 -1.7278972189628452e-08 -1.1989071006708361e-07 0.0000000000000000e+00 0.0000000000000000e+00 0.0000000000000000e+00 0.0000000000000000e+00  5.3759601802856071e-08 -3.2726185154211514e-08 0.0000000000000000e+00 -3.2726185154211514e-08 -1.4164258268407428e-07 0.0000000000000000e+00 0.0000000000000000e+00 0.0000000000000000e+00 0.0000000000000000e+00  5.7224316408542021e-08 -5.2281098309698011e-08 0.0000000000000000e+00 -5.2281098309698011e-08 -1.3564615627563151e-07 0.0000000000000000e+00 0.0000000000000000e+00 0.0000000000000000e+00 0.0000000000000000e+00  4.8977752838613728e-08 -4.3352589112808777e-08 0.0000000000000000e+00 -4.3352589112808777e-08 -1.0105451299435844e-07 0.0000000000000000e+00 0.0000000000000000e+00 0.0000000000000000e+00 0.0000000000000000e+00  3.1392373522118868e-08 -2.6862050009570439e-08 0.0000000000000000e+00 -2.6862050009570439e-08 -6.4830715440135702e-08 0.0000000000000000e+00 0.0000000000000000e+00 0.0000000000000000e+00 0.0000000000000000e+00  3.1968714458276007e-08 -1.7908133617125332e-08 0.0000000000000000e+00 -1.7908133617125332e-08 -5.6280351126552911e-08 0.0000000000000000e+00 0.0000000000000000e+00 0.0000000000000000e+00 0.0000000000000000e+00  2.6089142534677169e-08 -7.8571616686003091e-09 0.0000000000000000e+00 -7.8571616686003091e-09 -4.6870413589334030e-08 0.0000000000000000e+00 0.0000000000000000e+00 0.0000000000000000e+00 0.0000000000000000e+00  4.7251532065274207e-08 -6.4903435704173934e-09 0.0000000000000000e+00 -6.4903435704173934e-09 -9.9188925431159022e-08 0.0000000000000000e+00 0.0000000000000000e+00 0.0000000000000000e+00 0.0000000000000000e+00  5.0109759250434485e-08 6.3218053733194828e-10 0.0000000000000000e+00 6.3218053733194828e-10 -1.0099967698517237e-07 0.0000000000000000e+00 0.0000000000000000e+00 0.0000000000000000e+00 0.0000000000000000e+00  4.0660571230844432e-08 -9.0375077467601807e-09 0.0000000000000000e+00 -9.0375077467601807e-09 -9.6321775557276328e-08 0.0000000000000000e+00 0.0000000000000000e+00 0.0000000000000000e+00 0.0000000000000000e+00  6.0072442732465533e-08 -1.1660603019130544e-08 0.0000000000000000e+00 -1.1660603019130544e-08 -1.0520738080043645e-07 0.0000000000000000e+00 0.0000000000000000e+00 0.0000000000000000e+00 0.0000000000000000e+00  3.8836752697858328e-08 -8.0492500622592562e-10 0.0000000000000000e+00 -8.0492500622592562e-10 -9.1406365680388326e-08 0.0000000000000000e+00 0.0000000000000000e+00 0.0000000000000000e+00 0.0000000000000000e+00  4.3923272528526016e-08 -1.3059044830160189e-08 0.0000000000000000e+00 -1.3059044830160189e-08 -9.5577091485431944e-08 0.0000000000000000e+00 0.0000000000000000e+00 0.0000000000000000e+00 0.0000000000000000e+00  4.2155752062223355e-08 -4.5939873073339361e-09 0.0000000000000000e+00 -4.5939873073339361e-09 -9.4010928423857706e-08 0.0000000000000000e+00 0.0000000000000000e+00 0.0000000000000000e+00 0.0000000000000000e+00  5.8840259434614600e-08 -9.3974731913705888e-09 0.0000000000000000e+00 -9.3974731913705888e-09 -1.0184401062280994e-07 0.0000000000000000e+00 0.0000000000000000e+00 0.0000000000000000e+00 0.0000000000000000e+00  3.1507021460485877e-08 -2.0517999731442204e-08 0.0000000000000000e+00 -2.0517999731442204e-08 -8.7065605601495172e-08 0.0000000000000000e+00 0.0000000000000000e+00 0.0000000000000000e+00 0.0000000000000000e+00  4.3467583773888382e-08 -2.3290225125093203e-09 0.0000000000000000e+00 -2.3290225125093203e-09 -9.4493081440647358e-08 0.0000000000000000e+00 0.0000000000000000e+00 0.0000000000000000e+00 0.0000000000000000e+00  4.2781605914233671e-08 -9.7069692449157408e-09 0.0000000000000000e+00 -9.7069692449157408e-09 -9.5185565266699798e-08 0.0000000000000000e+00 0.0000000000000000e+00 0.0000000000000000e+00 0.0000000000000000e+00  4.9446698294263530e-08 -1.7175137581124692e-08 0.0000000000000000e+00 -1.7175137581124692e-08 -1.0261330846650145e-07 0.0000000000000000e+00 0.0000000000000000e+00 0.0000000000000000e+00 0.0000000000000000e+00  4.2716465827375115e-08 -6.3841541826494406e-09 0.0000000000000000e+00 -6.3841541826494406e-09 -9.9720210843455361e-08 0.0000000000000000e+00 0.0000000000000000e+00 0.0000000000000000e+00 0.0000000000000000e+00  5.5000286489166101e-08 -5.1452992659788350e-09 0.0000000000000000e+00 -5.1452992659788367e-09 -1.0436057785678487e-07 0.0000000000000000e+00 0.0000000000000000e+00 0.0000000000000000e+00 0.0000000000000000e+00  4.1396034474256778e-08 -7.0255316160537376e-09 0.0000000000000000e+00 -7.0255316160537376e-09 -9.5344107797965269e-08 0.0000000000000000e+00 0.0000000000000000e+00 0.0000000000000000e+00 0.0000000000000000e+00  4.6389195877348851e-08 -2.6499002482573457e-09 0.0000000000000000e+00 -2.6499002482573457e-09 -9.7793839153664502e-08 0.0000000000000000e+00 0.0000000000000000e+00 0.0000000000000000e+00 0.0000000000000000e+00  4.3321807236198410e-08 -9.3114216578285657e-09 0.0000000000000000e+00 -9.3114216578285657e-09 -9.6234847396245535e-08 0.0000000000000000e+00 0.0000000000000000e+00 0.0000000000000000e+00 0.0000000000000000e+00  5.1028681286624945e-08 -1.1696942520136498e-08 0.0000000000000000e+00 -1.1696942520136498e-08 -1.0157983590634803e-07 0.0000000000000000e+00 0.0000000000000000e+00 0.0000000000000000e+00 0.0000000000000000e+00  4.4164645246658835e-08 -5.4054314813518447e-09 0.0000000000000000e+00 -5.4054314813518447e-09 -9.6937434229959124e-08 0.0000000000000000e+00 0.0000000000000000e+00 0.0000000000000000e+00 0.0000000000000000e+00  5.4201982138692518e-08 -2.5575212431424784e-09 0.0000000000000000e+00 -2.5575212431424784e-09 -1.0679836781894863e-07 0.0000000000000000e+00 0.0000000000000000e+00 0.0000000000000000e+00 0.0000000000000000e+00  4.7021834047806535e-08 -1.5313353801168187e-08 0.0000000000000000e+00 -1.5313353801168187e-08 -1.0614555983760372e-07 0.0000000000000000e+00 0.0000000000000000e+00 0.0000000000000000e+00 0.0000000000000000e+00  5.6138558640096950e-08 -6.7032719826981778e-09 0.0000000000000000e+00 -6.7032719826981778e-09 -9.4793155757605909e-08 0.0000000000000000e+00 0.0000000000000000e+00 0.0000000000000000e+00 0.0000000000000000e+00  1.8991243316829722e-08 3.8286877800593891e-09 0.0000000000000000e+00 3.8286877800593891e-09 -7.4582261902652485e-08 0.0000000000000000e+00 0.0000000000000000e+00 0.0000000000000000e+00 0.0000000000000000e+00  4.4034831268986369e-08 -4.8119080262903649e-09 0.0000000000000000e+00 -4.8119080262903649e-09 -9.3781014786549219e-08 0.0000000000000000e+00 0.0000000000000000e+00 0.0000000000000000e+00 0.0000000000000000e+00  4.5464557038832799e-08 -1.0878190043615312e-08 0.0000000000000000e+00 -1.0878190043615312e-08 -9.4996250915559136e-08 0.0000000000000000e+00 0.0000000000000000e+00 0.0000000000000000e+00 0.0000000000000000e+00  4.3374563297068258e-08 -9.4839994385397035e-09 0.0000000000000000e+00 -9.4839994385397035e-09 -1.0043347557683161e-07 0.0000000000000000e+00 0.0000000000000000e+00 0.0000000000000000e+00 0.0000000000000000e+00  4.4104384941152210e-08 -2.4784963369521111e-09 0.0000000000000000e+00 -2.4784963369521111e-09 -9.9071712942524890e-08 0.0000000000000000e+00 0.0000000000000000e+00 0.0000000000000000e+00 0.0000000000000000e+00  4.1794506848663624e-08 9.5902109177778067e-09 0.0000000000000000e+00 9.5902109177778067e-09 -9.7715398185021774e-08 0.0000000000000000e+00 0.0000000000000000e+00 0.0000000000000000e+00 0.0000000000000000e+00  5.8247046725105486e-08 -8.7250924666535289e-09 0.0000000000000000e+00 -8.7250924666535289e-09 -1.0433827406255355e-07 0.0000000000000000e+00 0.0000000000000000e+00 0.0000000000000000e+00 0.0000000000000000e+00  4.3895529805936262e-08 -4.9395199975554810e-09 0.0000000000000000e+00 -4.9395199975554810e-09 -9.7085825797152236e-08 0.0000000000000000e+00 0.0000000000000000e+00 0.0000000000000000e+00 0.0000000000000000e+00  4.6400392975236087e-08 -1.1792779723182216e-08 0.0000000000000000e+00 -1.1792779723182216e-08 -9.7925544186965331e-08 0.0000000000000000e+00 0.0000000000000000e+00 0.0000000000000000e+00 0.0000000000000000e+00  4.2641819199106156e-08 -6.1495026417466772e-09 0.0000000000000000e+00 -6.1495026417466772e-09 -9.6030232605331528e-08 0.0000000000000000e+00 0.0000000000000000e+00 0.0000000000000000e+00 0.0000000000000000e+00  4.9568253870556669e-08 -1.5572917255402390e-08 0.0000000000000000e+00 -1.5572917255402390e-08 -1.0027069447662289e-07 0.0000000000000000e+00 0.0000000000000000e+00 0.0000000000000000e+00 0.0000000000000000e+00  4.4417007600014508e-08 -6.8878356594918565e-10 0.0000000000000000e+00 -6.8878356594918565e-10 -9.5766615918219296e-08 0.0000000000000000e+00 0.0000000000000000e+00 0.0000000000000000e+00 0.0000000000000000e+00  4.1248188220976695e-08 -9.4206899176668235e-09 0.0000000000000000e+00 -9.4206899176668235e-09 -9.4774516025218664e-08 0.0000000000000000e+00 0.0000000000000000e+00 0.0000000000000000e+00 0.0000000000000000e+00  5.6991988844728403e-08 -2.7578941079759873e-09 0.0000000000000000e+00 -2.7578941079759873e-09 -1.0530612784463105e-07 0.0000000000000000e+00 0.0000000000000000e+00 0.0000000000000000e+00 0.0000000000000000e+00  3.9218386923059036e-08 -1.0275641928742295e-08 0.0000000000000000e+00 -1.0275641928742297e-08 -9.3970839222861475e-08 0.0000000000000000e+00 0.0000000000000000e+00 0.0000000000000000e+00 0.0000000000000000e+00  5.4431986648820259e-08 -2.0627775817326161e-08 0.0000000000000000e+00 -2.0627775817326161e-08 -9.7917993208322742e-08 0.0000000000000000e+00 0.0000000000000000e+00 0.0000000000000000e+00 0.0000000000000000e+00  4.1442740871291679e-08 -4.1700392246693967e-08 0.0000000000000000e+00 -4.1700392246693967e-08 -1.0128266627452986e-07 0.0000000000000000e+00 0.0000000000000000e+00 0.0000000000000000e+00 0.0000000000000000e+00  4.9920204330638489e-08 -1.2256207396561184e-08 0.0000000000000000e+00 -1.2256207396561184e-08 -8.0965420424898433e-08 0.0000000000000000e+00 0.0000000000000000e+00 0.0000000000000000e+00 0.0000000000000000e+00  4.3246388840426094e-10 -2.0580436954679634e-08 0.0000000000000000e+00 -2.0580436954679634e-08 -5.5551043373705162e-08 0.0000000000000000e+00 0.0000000000000000e+00 0.0000000000000000e+00 0.0000000000000000e+00  4.7192120878242818e-08 -9.2749256259502123e-09 0.0000000000000000e+00 -9.2749256259502123e-09 -9.9196952740287390e-08 0.0000000000000000e+00 0.0000000000000000e+00 0.0000000000000000e+00 0.0000000000000000e+00  4.6409246313662436e-08 -4.7285217237775162e-09 0.0000000000000000e+00 -4.7285217237775162e-09 -9.7825348712443511e-08 0.0000000000000000e+00 0.0000000000000000e+00 0.0000000000000000e+00 0.0000000000000000e+00  5.2667174788880417e-08 -1.3516682110685823e-08 0.0000000000000000e+00 -1.3516682110685823e-08 -1.1271217979055043e-07 0.0000000000000000e+00 0.0000000000000000e+00 0.0000000000000000e+00 0.0000000000000000e+00  4.7902401535805335e-08 -3.2144959290280081e-09 0.0000000000000000e+00 -3.2144959290280081e-09 -1.1252128864546418e-07 0.0000000000000000e+00 0.0000000000000000e+00 0.0000000000000000e+00 0.0000000000000000e+00  4.7084604606813054e-08 -4.8702178549357833e-09 0.0000000000000000e+00 -4.8702178549357833e-09 -9.5385120785669515e-08 0.0000000000000000e+00 0.0000000000000000e+00 0.0000000000000000e+00 0.0000000000000000e+00  4.8349891266869729e-08 -9.0491286917827598e-09 0.0000000000000000e+00 -9.0491286917827598e-09 -9.6641992989619453e-08 0.0000000000000000e+00 0.0000000000000000e+00 0.0000000000000000e+00 0.0000000000000000e+00  4.5681625908809060e-08 -1.0362001844003444e-08 0.0000000000000000e+00 -1.0362001844003444e-08 -1.0301062440496777e-07 0.0000000000000000e+00 0.0000000000000000e+00 0.0000000000000000e+00 0.0000000000000000e+00  4.3244721483542299e-08 -3.4105902250742398e-09 0.0000000000000000e+00 -3.4105902250742398e-09 -1.0257462570901067e-07 0.0000000000000000e+00 0.0000000000000000e+00 0.0000000000000000e+00 0.0000000000000000e+00  3.4387923215478335e-08 -7.4814695401300918e-09 0.0000000000000000e+00 -7.4814695401300918e-09 -9.0169578348775382e-08 0.0000000000000000e+00 0.0000000000000000e+00 0.0000000000000000e+00 0.0000000000000000e+00  6.0651505331457476e-08 -8.2103428530781174e-09 0.0000000000000000e+00 -8.2103428530781174e-09 -1.0595410371594111e-07 0.0000000000000000e+00 0.0000000000000000e+00 0.0000000000000000e+00 0.0000000000000000e+00  5.6106082767223484e-08 -1.6511484261357869e-08 0.0000000000000000e+00 -1.6511484261357869e-08 -1.0593991252737590e-07 0.0000000000000000e+00 0.0000000000000000e+00 0.0000000000000000e+00 0.0000000000000000e+00  4.2879254107426348e-08 -3.3360709519107685e-09 0.0000000000000000e+00 -3.3360709519107685e-09 -9.8240764343808281e-08 0.0000000000000000e+00 0.0000000000000000e+00 0.0000000000000000e+00 0.0000000000000000e+00  4.2727003639378738e-08 -3.6641187068413829e-09 0.0000000000000000e+00 -3.6641187068413829e-09 -9.3176994257550313e-08 0.0000000000000000e+00 0.0000000000000000e+00 0.0000000000000000e+00 0.0000000000000000e+00  4.2620295639778330e-08 -1.1461136472424850e-08 0.0000000000000000e+00 -1.1461136472424850e-08 -9.3949003604741119e-08 0.0000000000000000e+00 0.0000000000000000e+00 0.0000000000000000e+00 0.0000000000000000e+00  4.1343471920460655e-08 -8.2128806756655695e-09 0.0000000000000000e+00 -8.2128806756655695e-09 -9.5638122201680283e-08 0.0000000000000000e+00 0.0000000000000000e+00 0.0000000000000000e+00 0.0000000000000000e+00  5.0905010247864043e-08 -1.8729800202428333e-09 0.0000000000000000e+00 -1.8729800202428333e-09 -1.0065930844448652e-07 0.0000000000000000e+00 0.0000000000000000e+00 0.0000000000000000e+00 0.0000000000000000e+00  4.8242087704946539e-08 -7.7205780859892144e-09 0.0000000000000000e+00 -7.7205780859892144e-09 -1.0967216500462489e-07 0.0000000000000000e+00 0.0000000000000000e+00 0.0000000000000000e+00 0.0000000000000000e+00  4.7925228238633435e-08 -1.4507194103898217e-08 0.0000000000000000e+00 -1.4507194103898217e-08 -1.1125473915073268e-07 0.0000000000000000e+00 0.0000000000000000e+00 0.0000000000000000e+00 0.0000000000000000e+00  4.6836005237414780e-08 5.8216512698825049e-09 0.0000000000000000e+00 5.8216512698825049e-09 -8.2261324921452066e-08 0.0000000000000000e+00 0.0000000000000000e+00 0.0000000000000000e+00 0.0000000000000000e+00  1.8453074399200259e-08 3.7422866800287483e-08 0.0000000000000000e+00 3.7422866800287483e-08 -7.6396707214279035e-08 0.0000000000000000e+00 0.0000000000000000e+00 0.0000000000000000e+00 0.0000000000000000e+00  4.3796624802556489e-08 -4.5916752321284011e-09 0.0000000000000000e+00 -4.5916752321284011e-09 -9.5918538644658054e-08 0.0000000000000000e+00 0.0000000000000000e+00 0.0000000000000000e+00 0.0000000000000000e+00  4.6113195666282671e-08 -1.2027581720698717e-08 0.0000000000000000e+00 -1.2027581720698717e-08 -9.7806737285961985e-08 0.0000000000000000e+00 0.0000000000000000e+00 0.0000000000000000e+00 0.0000000000000000e+00  4.9688838436753610e-08 -4.6098161934977770e-09 0.0000000000000000e+00 -4.6098161934977770e-09 -1.0067857524752204e-07 0.0000000000000000e+00 0.0000000000000000e+00 0.0000000000000000e+00 0.0000000000000000e+00  4.4121718360496282e-08 -7.4072684829802197e-09 0.0000000000000000e+00 -7.4072684829802197e-09 -9.7200140222594755e-08 0.0000000000000000e+00 0.0000000000000000e+00 0.0000000000000000e+00 0.0000000000000000e+00  5.6649137843042940e-08 -9.8935576684128713e-09 0.0000000000000000e+00 -9.8935576684128713e-09 -1.0525391206394746e-07 0.0000000000000000e+00 0.0000000000000000e+00 0.0000000000000000e+00 0.0000000000000000e+00  4.1740842438569108e-08 -4.9411260648079390e-09 0.0000000000000000e+00 -4.9411260648079390e-09 -9.5208638893700015e-08 0.0000000000000000e+00 0.0000000000000000e+00 0.0000000000000000e+00 0.0000000000000000e+00  4.7274599910226746e-08 -9.1916828487446007e-09 0.0000000000000000e+00 -9.1916828487446007e-09 -9.9139688311288810e-08 0.0000000000000000e+00 0.0000000000000000e+00 0.0000000000000000e+00 0.0000000000000000e+00  4.6007826504311527e-08 -4.7823282606046943e-09 0.0000000000000000e+00 -4.7823282606046943e-09 -9.8085385815506753e-08 0.0000000000000000e+00 0.0000000000000000e+00 0.0000000000000000e+00 0.0000000000000000e+00  5.1436096449785634e-08 -7.9397746019070413e-09 0.0000000000000000e+00 -7.9397746019070413e-09 -1.0207866309099969e-07 0.0000000000000000e+00 0.0000000000000000e+00 0.0000000000000000e+00 0.0000000000000000e+00  4.4253488839297977e-08 -5.9691946387680234e-09 0.0000000000000000e+00 -5.9691946387680234e-09 -9.7160911215713749e-08 0.0000000000000000e+00 0.0000000000000000e+00 0.0000000000000000e+00 0.0000000000000000e+00  4.7711778835032124e-08 -6.1556069997385641e-09 0.0000000000000000e+00 -6.1556069997385641e-09 -9.7001674996252140e-08 0.0000000000000000e+00 0.0000000000000000e+00 0.0000000000000000e+00 0.0000000000000000e+00  4.9278450037605276e-08 -1.0734915988971758e-08 0.0000000000000000e+00 -1.0734915988971758e-08 -9.7728826315225156e-08 0.0000000000000000e+00 0.0000000000000000e+00 0.0000000000000000e+00 0.0000000000000000e+00  4.1498533748216978e-08 -6.0702882842153045e-09 0.0000000000000000e+00 -6.0702882842153045e-09 -9.4913784906054318e-08 0.0000000000000000e+00 0.0000000000000000e+00 0.0000000000000000e+00 0.0000000000000000e+00  4.4960520909475621e-08 -1.5197514650332394e-08 0.0000000000000000e+00 -1.5197514650332394e-08 -9.7088029170100734e-08 0.0000000000000000e+00 0.0000000000000000e+00 0.0000000000000000e+00 0.0000000000000000e+00  4.3547237219786301e-08 -2.4280077023732489e-09 0.0000000000000000e+00 -2.4280077023732489e-09 -9.4861940373381202e-08 0.0000000000000000e+00 0.0000000000000000e+00 0.0000000000000000e+00 0.0000000000000000e+00  4.2370495050024142e-08 -1.0635616047508103e-08 0.0000000000000000e+00 -1.0635616047508103e-08 -9.4928084245897121e-08 0.0000000000000000e+00 0.0000000000000000e+00 0.0000000000000000e+00 0.0000000000000000e+00  5.3590657241918347e-08 -1.4889885578371505e-08 0.0000000000000000e+00 -1.4889885578371505e-08 -1.0365983450619059e-07 0.0000000000000000e+00 0.0000000000000000e+00 0.0000000000000000e+00 0.0000000000000000e+00  4.3271523876667019e-08 -5.6309462353847165e-09 0.0000000000000000e+00 -5.6309462353847165e-09 -9.6666662433437816e-08 0.0000000000000000e+00 0.0000000000000000e+00 0.0000000000000000e+00 0.0000000000000000e+00  4.4988782172500937e-08 -3.8226401741684294e-11 0.0000000000000000e+00 -3.8226401741684294e-11 -9.7101483749462304e-08 0.0000000000000000e+00 0.0000000000000000e+00 0.0000000000000000e+00 0.0000000000000000e+00  4.0905735472440707e-08 -9.1629878941539839e-09 0.0000000000000000e+00 -9.1629878941539839e-09 -9.6504841463955608e-08 0.0000000000000000e+00 0.0000000000000000e+00 0.0000000000000000e+00 0.0000000000000000e+00  5.9255699571916532e-08 -8.8339440714776299e-09 0.0000000000000000e+00 -8.8339440714776299e-09 -1.0241233791452549e-07 0.0000000000000000e+00 0.0000000000000000e+00 0.0000000000000000e+00 0.0000000000000000e+00  3.2247136070761087e-08 6.3331319626089294e-09 0.0000000000000000e+00 6.3331319626089294e-09 -8.5874401504776054e-08 0.0000000000000000e+00 0.0000000000000000e+00 0.0000000000000000e+00 0.0000000000000000e+00  4.3266119842651153e-08 -9.5826821225698547e-09 0.0000000000000000e+00 -9.5826821225698547e-09 -1.0183540172012879e-07 0.0000000000000000e+00 0.0000000000000000e+00 0.0000000000000000e+00 0.0000000000000000e+00  4.9758936489622659e-08 1.3746488051220519e-09 0.0000000000000000e+00 1.3746488051220519e-09 -1.0304026062804694e-07 0.0000000000000000e+00 0.0000000000000000e+00 0.0000000000000000e+00 0.0000000000000000e+00  5.8231562257229633e-08 -3.6921458870606580e-09 0.0000000000000000e+00 -3.6921458870606580e-09 -1.0676853979432764e-07 0.0000000000000000e+00 0.0000000000000000e+00 0.0000000000000000e+00 0.0000000000000000e+00  3.9302152077637292e-08 -1.6175259444443009e-08 0.0000000000000000e+00 -1.6175259444443009e-08 -9.8032103480855354e-08 0.0000000000000000e+00 0.0000000000000000e+00 0.0000000000000000e+00 0.0000000000000000e+00  4.2433266895706847e-08 -4.8477570532003164e-09 0.0000000000000000e+00 -4.8477570532003164e-09 -9.3973075750384580e-08 0.0000000000000000e+00 0.0000000000000000e+00 0.0000000000000000e+00 0.0000000000000000e+00  4.4574766131009135e-08 -1.2712551267967964e-08 0.0000000000000000e+00 -1.2712551267967964e-08 -9.5404018892957960e-08 0.0000000000000000e+00 0.0000000000000000e+00 0.0000000000000000e+00 0.0000000000000000e+00  5.8421598496215184e-08 -2.2826595683051710e-08 0.0000000000000000e+00 -2.2826595683051710e-08 -1.1149407716977780e-07 0.0000000000000000e+00 0.0000000000000000e+00 0.0000000000000000e+00 0.0000000000000000e+00  5.6047794551380319e-08 -3.3537201129420128e-08 0.0000000000000000e+00 -3.3537201129420128e-08 -1.1512118658727658e-07 0.0000000000000000e+00 0.0000000000000000e+00 0.0000000000000000e+00 0.0000000000000000e+00  3.9548001304398477e-08 -2.3300587838300341e-09 0.0000000000000000e+00 -2.3300587838300341e-09 -7.1428355549274013e-08 0.0000000000000000e+00 0.0000000000000000e+00 0.0000000000000000e+00 0.0000000000000000e+00  -1.9035771574841622e-08 1.5824001020049808e-09 0.0000000000000000e+00 1.5824001020049810e-09 -3.5352196002903934e-08 0.0000000000000000e+00 0.0000000000000000e+00 0.0000000000000000e+00 0.0000000000000000e+00  5.0285165409049190e-08 -7.0963544344832679e-09 0.0000000000000000e+00 -7.0963544344832679e-09 -1.0591772776356550e-07 0.0000000000000000e+00 0.0000000000000000e+00 0.0000000000000000e+00 0.0000000000000000e+00  5.0671953496802221e-08 -1.0431542349479554e-08 0.0000000000000000e+00 -1.0431542349479554e-08 -1.0711208898597367e-07 0.0000000000000000e+00 0.0000000000000000e+00 0.0000000000000000e+00 0.0000000000000000e+00  5.3499414728054869e-08 9.3610753137156201e-09 0.0000000000000000e+00 9.3610753137156201e-09 -1.0580905188894078e-07 0.0000000000000000e+00 0.0000000000000000e+00 0.0000000000000000e+00 0.0000000000000000e+00  4.8357906643167408e-08 2.1047865665780312e-08 0.0000000000000000e+00 2.1047865665780312e-08 -1.0834840079006174e-07 0.0000000000000000e+00 0.0000000000000000e+00 0.0000000000000000e+00 0.0000000000000000e+00  5.0205808146147175e-08 -6.6150624582896005e-09 0.0000000000000000e+00 -6.6150624582896005e-09 -9.7015863891470035e-08 0.0000000000000000e+00 0.0000000000000000e+00 0.0000000000000000e+00 0.0000000000000000e+00  5.1740523206701943e-08 -9.0692893937622339e-09 0.0000000000000000e+00 -9.0692893937622339e-09 -9.7942780027683381e-08 0.0000000000000000e+00 0.0000000000000000e+00 0.0000000000000000e+00 0.0000000000000000e+00  2.5094829881974799e-08 -9.6703336903685426e-09 0.0000000000000000e+00 -9.6703336903685426e-09 -7.7526696349548275e-08 0.0000000000000000e+00 0.0000000000000000e+00 0.0000000000000000e+00 0.0000000000000000e+00  5.9063947140005485e-08 -8.9557413524415811e-09 0.0000000000000000e+00 -8.9557413524415811e-09 -9.9139796858770284e-08 0.0000000000000000e+00 0.0000000000000000e+00 0.0000000000000000e+00 0.0000000000000000e+00  5.0795919617958092e-08 -9.3962386709395919e-09 0.0000000000000000e+00 -9.3962386709395919e-09 -1.0255924552263006e-07 0.0000000000000000e+00 0.0000000000000000e+00 0.0000000000000000e+00 0.0000000000000000e+00  4.9090522325242076e-08 -5.6276114692157417e-09 0.0000000000000000e+00 -5.6276114692157417e-09 -1.0211830246720589e-07 0.0000000000000000e+00 0.0000000000000000e+00 0.0000000000000000e+00 0.0000000000000000e+00  4.3719888079920313e-08 -1.9503426311315495e-08 0.0000000000000000e+00 -1.9503426311315495e-08 -8.0022309619153420e-08 0.0000000000000000e+00 0.0000000000000000e+00 0.0000000000000000e+00 0.0000000000000000e+00  1.9302880038716595e-08 -4.6398613928982541e-08 0.0000000000000000e+00 -4.6398613928982541e-08 -7.3643642698760947e-08 0.0000000000000000e+00 0.0000000000000000e+00 0.0000000000000000e+00 0.0000000000000000e+00  5.1535615350344711e-08 -9.4049235884036286e-09 0.0000000000000000e+00 -9.4049235884036286e-09 -1.0081160736123072e-07 0.0000000000000000e+00 0.0000000000000000e+00 0.0000000000000000e+00 0.0000000000000000e+00  5.0690349794562050e-08 -6.8279149266525519e-09 0.0000000000000000e+00 -6.8279149266525519e-09 -9.9665869679641729e-08 0.0000000000000000e+00 0.0000000000000000e+00 0.0000000000000000e+00 0.0000000000000000e+00  4.4458639095077604e-08 -2.2496836701209864e-09 0.0000000000000000e+00 -2.2496836701209864e-09 -9.6615188174235354e-08 0.0000000000000000e+00 0.0000000000000000e+00 0.0000000000000000e+00 0.0000000000000000e+00  4.3019180448505032e-08 -9.5183156289888367e-09 0.0000000000000000e+00 -9.5183156289888367e-09 -9.7222171945799643e-08 0.0000000000000000e+00 0.0000000000000000e+00 0.0000000000000000e+00 0.0000000000000000e+00  5.8103143386876108e-08 -7.1707148037984657e-09 0.0000000000000000e+00 -7.1707148037984657e-09 -1.0551415480650094e-07 0.0000000000000000e+00 0.0000000000000000e+00 0.0000000000000000e+00 0.0000000000000000e+00  3.9004981220868885e-08 -6.3590178523632459e-09 0.0000000000000000e+00 -6.3590178523632459e-09 -9.3285594125058249e-08 0.0000000000000000e+00 0.0000000000000000e+00 0.0000000000000000e+00 0.0000000000000000e+00  4.5893650579638213e-08 -1.4254660875255508e-08 0.0000000000000000e+00 -1.4254660875255508e-08 -9.8931831596336683e-08 0.0000000000000000e+00 0.0000000000000000e+00 0.0000000000000000e+00 0.0000000000000000e+00  4.2004539902615818e-08 -5.3852113557885598e-09 0.0000000000000000e+00 -5.3852113557885598e-09 -9.7423230777191400e-08 0.0000000000000000e+00 0.0000000000000000e+00 0.0000000000000000e+00 0.0000000000000000e+00  4.7595737526621616e-08 -2.2259378528945035e-09 0.0000000000000000e+00 -2.2259378528945035e-09 -1.1275058592838943e-07 0.0000000000000000e+00 0.0000000000000000e+00 0.0000000000000000e+00 0.0000000000000000e+00  4.9274395414823658e-08 -8.6385190011374918e-09 0.0000000000000000e+00 -8.6385190011374918e-09 -1.1154636324825661e-07 0.0000000000000000e+00 0.0000000000000000e+00 0.0000000000000000e+00 0.0000000000000000e+00  5.5300343949265694e-08 -1.4825437521311982e-08 0.0000000000000000e+00 -1.4825437521311982e-08 -1.0740784996362976e-07 0.0000000000000000e+00 0.0000000000000000e+00 0.0000000000000000e+00 0.0000000000000000e+00  4.5658828710630676e-08 -1.4361561202180041e-09 0.0000000000000000e+00 -1.4361561202180041e-09 -1.0389776020564094e-07 0.0000000000000000e+00 0.0000000000000000e+00 0.0000000000000000e+00 0.0000000000000000e+00  4.4077396892471248e-08 -3.7217960421427359e-09 0.0000000000000000e+00 -3.7217960421427359e-09 -9.3907808127460302e-08 0.0000000000000000e+00 0.0000000000000000e+00 0.0000000000000000e+00 0.0000000000000000e+00  4.4632818298878184e-08 -1.0199600523906372e-08 0.0000000000000000e+00 -1.0199600523906372e-08 -9.4871873278263671e-08 0.0000000000000000e+00 0.0000000000000000e+00 0.0000000000000000e+00 0.0000000000000000e+00  3.1478884119849600e-08 -1.1748602649260528e-09 0.0000000000000000e+00 -1.1748602649260528e-09 -8.5319161092452428e-08 0.0000000000000000e+00 0.0000000000000000e+00 0.0000000000000000e+00 0.0000000000000000e+00  6.0448145608903276e-08 -8.6188051393281021e-09 0.0000000000000000e+00 -8.6188051393281021e-09 -1.0355552693872113e-07 0.0000000000000000e+00 0.0000000000000000e+00 0.0000000000000000e+00 0.0000000000000000e+00  5.2080519148983775e-08 -1.6596250746244251e-08 0.0000000000000000e+00 -1.6596250746244251e-08 -1.0321061957147635e-07 0.0000000000000000e+00 0.0000000000000000e+00 0.0000000000000000e+00 0.0000000000000000e+00  4.2643997048121024e-08 -5.6292776882399942e-09 0.0000000000000000e+00 -5.6292776882399942e-09 -9.7553962338311850e-08 0.0000000000000000e+00 0.0000000000000000e+00 0.0000000000000000e+00 0.0000000000000000e+00  4.8093838944721219e-08 -1.4051301214873829e-10 0.0000000000000000e+00 -1.4051301214873826e-10 -9.9174588043044124e-08 0.0000000000000000e+00 0.0000000000000000e+00 0.0000000000000000e+00 0.0000000000000000e+00  4.1129794558932139e-08 -8.6146856906805618e-09 0.0000000000000000e+00 -8.6146856906805618e-09 -9.5669853806838314e-08 0.0000000000000000e+00 0.0000000000000000e+00 0.0000000000000000e+00 0.0000000000000000e+00  4.1828332087258034e-08 -1.0072626974447538e-08 0.0000000000000000e+00 -1.0072626974447536e-08 -9.4193736931031654e-08 0.0000000000000000e+00 0.0000000000000000e+00 0.0000000000000000e+00 0.0000000000000000e+00  4.2906648370319491e-08 -2.0676472913782592e-09 0.0000000000000000e+00 -2.0676472913782592e-09 -9.3875092633069342e-08 0.0000000000000000e+00 0.0000000000000000e+00 0.0000000000000000e+00 0.0000000000000000e+00  5.0555906473853421e-08 -7.8189670306459132e-09 0.0000000000000000e+00 -7.8189670306459132e-09 -1.1049249670813293e-07 0.0000000000000000e+00 0.0000000000000000e+00 0.0000000000000000e+00 0.0000000000000000e+00  5.0595613573739961e-08 -1.2135166504330325e-08 0.0000000000000000e+00 -1.2135166504330325e-08 -1.1215386015055006e-07 0.0000000000000000e+00 0.0000000000000000e+00 0.0000000000000000e+00 0.0000000000000000e+00  4.2214010797616588e-08 2.0926903652067544e-08 0.0000000000000000e+00 2.0926903652067544e-08 -7.7683127307788379e-08 0.0000000000000000e+00 0.0000000000000000e+00 0.0000000000000000e+00 0.0000000000000000e+00  4.0520223911888146e-08 3.6289842653112316e-08 0.0000000000000000e+00 3.6289842653112316e-08 -8.3647380947954670e-08 0.0000000000000000e+00 0.0000000000000000e+00 0.0000000000000000e+00 0.0000000000000000e+00  5.7132468130998961e-08 -2.0060509225917401e-08 0.0000000000000000e+00 -2.0060509225917401e-08 -1.2388280648028214e-07 0.0000000000000000e+00 0.0000000000000000e+00 0.0000000000000000e+00 0.0000000000000000e+00  5.7078780279107058e-08 -2.5911493568270028e-08 0.0000000000000000e+00 -2.5911493568270028e-08 -1.2711730417333521e-07 0.0000000000000000e+00 0.0000000000000000e+00 0.0000000000000000e+00 0.0000000000000000e+00  3.4368695160556869e-08 6.9346445724256933e-09 0.0000000000000000e+00 6.9346445724256933e-09 -6.6955198258919440e-08 0.0000000000000000e+00 0.0000000000000000e+00 0.0000000000000000e+00 0.0000000000000000e+00  -1.5441639229389467e-08 5.1226680249757296e-08 0.0000000000000000e+00 5.1226680249757296e-08 -5.8799281852909956e-08 0.0000000000000000e+00 0.0000000000000000e+00 0.0000000000000000e+00 0.0000000000000000e+00  5.2809032232169822e-08 -1.0650478845239761e-09 0.0000000000000000e+00 -1.0650478845239761e-09 -1.0284459093959741e-07 0.0000000000000000e+00 0.0000000000000000e+00 0.0000000000000000e+00 0.0000000000000000e+00  4.0449425708022539e-08 -8.6191675323614245e-09 0.0000000000000000e+00 -8.6191675323614245e-09 -9.6161789259079612e-08 0.0000000000000000e+00 0.0000000000000000e+00 0.0000000000000000e+00 0.0000000000000000e+00  4.6142718737485621e-08 -1.3910294707863448e-08 0.0000000000000000e+00 -1.3910294707863448e-08 -9.7819419747767722e-08 0.0000000000000000e+00 0.0000000000000000e+00 0.0000000000000000e+00 0.0000000000000000e+00  4.2603668974084907e-08 -5.3800650890512440e-09 0.0000000000000000e+00 -5.3800650890512440e-09 -9.5202019998203338e-08 0.0000000000000000e+00 0.0000000000000000e+00 0.0000000000000000e+00 0.0000000000000000e+00  5.0963001496977545e-08 -4.4156737722521634e-09 0.0000000000000000e+00 -4.4156737722521634e-09 -1.0733344161460119e-07 0.0000000000000000e+00 0.0000000000000000e+00 0.0000000000000000e+00 0.0000000000000000e+00  5.2695441239392463e-08 -8.5633887269677904e-09 0.0000000000000000e+00 -8.5633887269677904e-09 -1.0712627480833236e-07 0.0000000000000000e+00 0.0000000000000000e+00 0.0000000000000000e+00 0.0000000000000000e+00  4.2434385060745115e-08 -1.0872380556183687e-08 0.0000000000000000e+00 -1.0872380556183687e-08 -9.9607524826446839e-08 0.0000000000000000e+00 0.0000000000000000e+00 0.0000000000000000e+00 0.0000000000000000e+00  5.1922627568204562e-08 9.8305914863724005e-10 0.0000000000000000e+00 9.8305914863724005e-10 -1.0363661567743061e-07 0.0000000000000000e+00 0.0000000000000000e+00 0.0000000000000000e+00 0.0000000000000000e+00  5.0431626245839227e-08 -6.7834898196006932e-09 0.0000000000000000e+00 -6.7834898196006932e-09 -9.7273026584353818e-08 0.0000000000000000e+00 0.0000000000000000e+00 0.0000000000000000e+00 0.0000000000000000e+00  5.1825178446870621e-08 -8.8698756491588486e-09 0.0000000000000000e+00 -8.8698756491588486e-09 -9.8384150843922779e-08 0.0000000000000000e+00 0.0000000000000000e+00 0.0000000000000000e+00 0.0000000000000000e+00  2.6462742981016014e-08 -3.4517245458356526e-08 0.0000000000000000e+00 -3.4517245458356526e-08 -7.9321841552546491e-08 0.0000000000000000e+00 0.0000000000000000e+00 0.0000000000000000e+00 0.0000000000000000e+00  5.6447816178176773e-08 -1.4429033971191609e-08 0.0000000000000000e+00 -1.4429033971191609e-08 -9.4399940413956362e-08 0.0000000000000000e+00 0.0000000000000000e+00 0.0000000000000000e+00 0.0000000000000000e+00  4.7215501868556703e-08 -1.5588770123509505e-08 0.0000000000000000e+00 -1.5588770123509505e-08 -1.0418524290256995e-07 0.0000000000000000e+00 0.0000000000000000e+00 0.0000000000000000e+00 0.0000000000000000e+00  4.3085899416696916e-08 -5.3071614301174552e-09 0.0000000000000000e+00 -5.3071614301174552e-09 -1.0365111586050670e-07 0.0000000000000000e+00 0.0000000000000000e+00 0.0000000000000000e+00 0.0000000000000000e+00  6.0173528391412696e-08 -5.6577304294516518e-09 0.0000000000000000e+00 -5.6577304294516518e-09 -1.0527907761028123e-07 0.0000000000000000e+00 0.0000000000000000e+00 0.0000000000000000e+00 0.0000000000000000e+00  3.3025483688916101e-08 -1.1993040384337315e-08 0.0000000000000000e+00 -1.1993040384337315e-08 -8.9514362967882850e-08 0.0000000000000000e+00 0.0000000000000000e+00 0.0000000000000000e+00 0.0000000000000000e+00  4.5491717173081998e-08 -4.5367699952153547e-09 0.0000000000000000e+00 -4.5367699952153547e-09 -9.5772438946641183e-08 0.0000000000000000e+00 0.0000000000000000e+00 0.0000000000000000e+00 0.0000000000000000e+00  4.5362389377685070e-08 -1.0062198936400888e-08 0.0000000000000000e+00 -1.0062198936400888e-08 -9.6645881627865511e-08 0.0000000000000000e+00 0.0000000000000000e+00 0.0000000000000000e+00 0.0000000000000000e+00  5.9821181650279725e-08 -8.2611379054321195e-09 0.0000000000000000e+00 -8.2611379054321195e-09 -1.0612447975717770e-07 0.0000000000000000e+00 0.0000000000000000e+00 0.0000000000000000e+00 0.0000000000000000e+00  4.5184947553107449e-08 -2.5145854527734768e-08 0.0000000000000000e+00 -2.5145854527734768e-08 -1.0132263623918833e-07 0.0000000000000000e+00 0.0000000000000000e+00 0.0000000000000000e+00 0.0000000000000000e+00  4.7286243782893937e-08 -4.6459333380710773e-08 0.0000000000000000e+00 -4.6459333380710773e-08 -8.8954679640027656e-08 0.0000000000000000e+00 0.0000000000000000e+00 0.0000000000000000e+00 0.0000000000000000e+00  4.6508120317649942e-08 -3.5350509596043998e-08 0.0000000000000000e+00 -3.5350509596043998e-08 -8.3301690768051480e-08 0.0000000000000000e+00 0.0000000000000000e+00 0.0000000000000000e+00 0.0000000000000000e+00  3.3628988681073080e-08 -1.0307130334684892e-08 0.0000000000000000e+00 -1.0307130334684892e-08 -6.3277597815541797e-08 0.0000000000000000e+00 0.0000000000000000e+00 0.0000000000000000e+00 0.0000000000000000e+00  -2.8324508865148470e-08 -2.7441371249402192e-09 0.0000000000000000e+00 -2.7441371249402192e-09 -2.8302466030749745e-08 0.0000000000000000e+00 0.0000000000000000e+00 0.0000000000000000e+00 0.0000000000000000e+00  4.1544499198879440e-08 -9.3304717395433837e-09 0.0000000000000000e+00 -9.3304717395433837e-09 -9.5450472152997751e-08 0.0000000000000000e+00 0.0000000000000000e+00 0.0000000000000000e+00 0.0000000000000000e+00  4.4059342939305964e-08 -6.8698501332560523e-10 0.0000000000000000e+00 -6.8698501332560523e-10 -9.5507637370910769e-08 0.0000000000000000e+00 0.0000000000000000e+00 0.0000000000000000e+00 0.0000000000000000e+00  4.7723609383353389e-08 -1.6317571453196247e-08 0.0000000000000000e+00 -1.6317571453196247e-08 -9.9825582224271748e-08 0.0000000000000000e+00 0.0000000000000000e+00 0.0000000000000000e+00 0.0000000000000000e+00  4.1502707106753151e-08 -6.2779467525455007e-09 0.0000000000000000e+00 -6.2779467525455007e-09 -9.6316958183133997e-08 0.0000000000000000e+00 0.0000000000000000e+00 0.0000000000000000e+00 0.0000000000000000e+00  4.3528134299496015e-08 -5.6205012170249505e-09 0.0000000000000000e+00 -5.6205012170249505e-09 -9.6428767078800744e-08 0.0000000000000000e+00 0.0000000000000000e+00 0.0000000000000000e+00 0.0000000000000000e+00  4.9762048407976246e-08 -1.3636349259262618e-08 0.0000000000000000e+00 -1.3636349259262618e-08 -1.0072246906533725e-07 0.0000000000000000e+00 0.0000000000000000e+00 0.0000000000000000e+00 0.0000000000000000e+00  4.5318840221150872e-08 -1.7630590947680241e-09 0.0000000000000000e+00 -1.7630590947680241e-09 -9.6284122779912690e-08 0.0000000000000000e+00 0.0000000000000000e+00 0.0000000000000000e+00 0.0000000000000000e+00  4.1967542569269207e-08 -9.4788825394960700e-09 0.0000000000000000e+00 -9.4788825394960700e-09 -9.5231412501666182e-08 0.0000000000000000e+00 0.0000000000000000e+00 0.0000000000000000e+00 0.0000000000000000e+00  5.0204260252786469e-08 -6.7468648711260571e-09 0.0000000000000000e+00 -6.7468648711260571e-09 -9.8011333741315143e-08 0.0000000000000000e+00 0.0000000000000000e+00 0.0000000000000000e+00 0.0000000000000000e+00  5.1874972768306983e-08 -9.2734754394021238e-09 0.0000000000000000e+00 -9.2734754394021238e-09 -9.8863540345686471e-08 0.0000000000000000e+00 0.0000000000000000e+00 0.0000000000000000e+00 0.0000000000000000e+00  5.3201639889086111e-08 -7.7547357314455464e-09 0.0000000000000000e+00 -7.7547357314455464e-09 -1.0454242978461589e-07 0.0000000000000000e+00 0.0000000000000000e+00 0.0000000000000000e+00 0.0000000000000000e+00  5.3544576650364018e-08 -9.6391921196422800e-09 0.0000000000000000e+00 -9.6391921196422800e-09 -1.0539888100612857e-07 0.0000000000000000e+00 0.0000000000000000e+00 0.0000000000000000e+00 0.0000000000000000e+00  5.3308575137463254e-08 4.4127960777457718e-09 0.0000000000000000e+00 4.4127960777457718e-09 -1.2093081010103871e-07 0.0000000000000000e+00 0.0000000000000000e+00 0.0000000000000000e+00 0.0000000000000000e+00  5.2426480764016290e-08 1.1555997203998044e-08 0.0000000000000000e+00 1.1555997203998044e-08 -1.2394489557034596e-07 0.0000000000000000e+00 0.0000000000000000e+00 0.0000000000000000e+00 0.0000000000000000e+00  5.6738121277988177e-08 -4.2076477210601554e-09 0.0000000000000000e+00 -4.2076477210601554e-09 -1.0522747432368844e-07 0.0000000000000000e+00 0.0000000000000000e+00 0.0000000000000000e+00 0.0000000000000000e+00  3.9964348386686817e-08 -8.2169338657550176e-09 0.0000000000000000e+00 -8.2169338657550176e-09 -9.4457175749791047e-08 0.0000000000000000e+00 0.0000000000000000e+00 0.0000000000000000e+00 0.0000000000000000e+00  5.2872217625757427e-08 -8.6060724373883397e-09 0.0000000000000000e+00 -8.6060724373883397e-09 -9.9711860543867251e-08 0.0000000000000000e+00 0.0000000000000000e+00 0.0000000000000000e+00 0.0000000000000000e+00  5.1600199672603776e-08 -6.8237119980041609e-09 0.0000000000000000e+00 -6.8237119980041609e-09 -9.8750573845878979e-08 0.0000000000000000e+00 0.0000000000000000e+00 0.0000000000000000e+00 0.0000000000000000e+00  5.0959793128640036e-08 -2.9504596273942607e-09 0.0000000000000000e+00 -2.9504596273942607e-09 -1.1328012081853207e-07 0.0000000000000000e+00 0.0000000000000000e+00 0.0000000000000000e+00 0.0000000000000000e+00  5.2578242906499147e-08 -6.8753303694833094e-09 0.0000000000000000e+00 -6.8753303694833094e-09 -1.1264566396573475e-07 0.0000000000000000e+00 0.0000000000000000e+00 0.0000000000000000e+00 0.0000000000000000e+00  4.6320853521460870e-08 -1.1684457075131290e-09 0.0000000000000000e+00 -1.1684457075131290e-09 -1.0322049753369117e-07 0.0000000000000000e+00 0.0000000000000000e+00 0.0000000000000000e+00 0.0000000000000000e+00  4.3407336530506788e-08 -1.0807794129879131e-08 0.0000000000000000e+00 -1.0807794129879131e-08 -1.0464756204829514e-07 0.0000000000000000e+00 0.0000000000000000e+00 0.0000000000000000e+00 0.0000000000000000e+00  5.6311689781032052e-08 -2.4872039006831795e-09 0.0000000000000000e+00 -2.4872039006831795e-09 -9.5516510581878008e-08 0.0000000000000000e+00 0.0000000000000000e+00 0.0000000000000000e+00 0.0000000000000000e+00  2.7811431076451240e-08 1.6827215328454570e-08 0.0000000000000000e+00 1.6827215328454570e-08 -7.8293024465007078e-08 0.0000000000000000e+00 0.0000000000000000e+00 0.0000000000000000e+00 0.0000000000000000e+00  4.5915925481568689e-08 -5.6967101882305011e-09 0.0000000000000000e+00 -5.6967101882305011e-09 -9.8204117670903641e-08 0.0000000000000000e+00 0.0000000000000000e+00 0.0000000000000000e+00 0.0000000000000000e+00  4.8657632353204798e-08 -7.8108767494581082e-09 0.0000000000000000e+00 -7.8108767494581082e-09 -1.0014256137757709e-07 0.0000000000000000e+00 0.0000000000000000e+00 0.0000000000000000e+00 0.0000000000000000e+00  4.4742730066511772e-08 -8.6119916899050186e-09 0.0000000000000000e+00 -8.6119916899050186e-09 -9.7466284438463818e-08 0.0000000000000000e+00 0.0000000000000000e+00 0.0000000000000000e+00 0.0000000000000000e+00  4.7442250026368297e-08 -3.9298557713396433e-09 0.0000000000000000e+00 -3.9298557713396433e-09 -9.8937499051997279e-08 0.0000000000000000e+00 0.0000000000000000e+00 0.0000000000000000e+00 0.0000000000000000e+00  4.6208125969937126e-08 -1.1406770288561462e-08 0.0000000000000000e+00 -1.1406770288561462e-08 -9.6249772389725853e-08 0.0000000000000000e+00 0.0000000000000000e+00 0.0000000000000000e+00 0.0000000000000000e+00  4.4417505276580708e-08 -5.1090237800359204e-09 0.0000000000000000e+00 -5.1090237800359204e-09 -9.5078417822211007e-08 0.0000000000000000e+00 0.0000000000000000e+00 0.0000000000000000e+00 0.0000000000000000e+00  5.2177269782260445e-08 -9.1736666788194726e-09 0.0000000000000000e+00 -9.1736666788194726e-09 -1.0101923322265255e-07 0.0000000000000000e+00 0.0000000000000000e+00 0.0000000000000000e+00 0.0000000000000000e+00  5.0441812128304199e-08 -6.4276095834874006e-09 0.0000000000000000e+00 -6.4276095834874006e-09 -1.0048379194260632e-07 0.0000000000000000e+00 0.0000000000000000e+00 0.0000000000000000e+00 0.0000000000000000e+00  4.1329159266691143e-08 1.6747362178675429e-09 0.0000000000000000e+00 1.6747362178675429e-09 -9.5574885366595661e-08 0.0000000000000000e+00 0.0000000000000000e+00 0.0000000000000000e+00 0.0000000000000000e+00  5.9812474529212003e-08 -1.2265215959936785e-08 0.0000000000000000e+00 -1.2265215959936785e-08 -1.0648423557086656e-07 0.0000000000000000e+00 0.0000000000000000e+00 0.0000000000000000e+00 0.0000000000000000e+00  4.5420738015659743e-08 -3.9079270690216750e-09 0.0000000000000000e+00 -3.9079270690216750e-09 -9.7263169122893687e-08 0.0000000000000000e+00 0.0000000000000000e+00 0.0000000000000000e+00 0.0000000000000000e+00  4.5424681241965906e-08 -1.0192028900138894e-08 0.0000000000000000e+00 -1.0192028900138894e-08 -9.7744698299872397e-08 0.0000000000000000e+00 0.0000000000000000e+00 0.0000000000000000e+00 0.0000000000000000e+00  4.2615667042626621e-08 -4.0048222565107573e-09 0.0000000000000000e+00 -4.0048222565107573e-09 -9.3428110204400402e-08 0.0000000000000000e+00 0.0000000000000000e+00 0.0000000000000000e+00 0.0000000000000000e+00  4.3909043522150512e-08 -1.1549887016774533e-08 0.0000000000000000e+00 -1.1549887016774533e-08 -9.4722853005800353e-08 0.0000000000000000e+00 0.0000000000000000e+00 0.0000000000000000e+00 0.0000000000000000e+00  4.7037552203755288e-08 -5.6973149844006988e-09 0.0000000000000000e+00 -5.6973149844006988e-09 -9.5247672022499387e-08 0.0000000000000000e+00 0.0000000000000000e+00 0.0000000000000000e+00 0.0000000000000000e+00  4.8111948874949410e-08 -1.0297079631880105e-08 0.0000000000000000e+00 -1.0297079631880105e-08 -9.6359051294908347e-08 0.0000000000000000e+00 0.0000000000000000e+00 0.0000000000000000e+00 0.0000000000000000e+00  5.1602544701729775e-08 -3.7763409358266247e-09 0.0000000000000000e+00 -3.7763409358266230e-09 -1.0177926635011051e-07 0.0000000000000000e+00 0.0000000000000000e+00 0.0000000000000000e+00 0.0000000000000000e+00  4.2383175155525608e-08 -7.4220344809275788e-09 0.0000000000000000e+00 -7.4220344809275788e-09 -9.6234111284351454e-08 0.0000000000000000e+00 0.0000000000000000e+00 0.0000000000000000e+00 0.0000000000000000e+00  1.6024588506685058e-08 -1.8462706610562157e-08 0.0000000000000000e+00 -1.8462706610562157e-08 -7.6703082945738148e-08 0.0000000000000000e+00 0.0000000000000000e+00 0.0000000000000000e+00 0.0000000000000000e+00  5.6019888838258201e-08 -1.0185503949073550e-08 0.0000000000000000e+00 -1.0185503949073550e-08 -9.6044318310208279e-08 0.0000000000000000e+00 0.0000000000000000e+00 0.0000000000000000e+00 0.0000000000000000e+00  1.2546277926115339e-08 -5.5474854965537588e-09 0.0000000000000000e+00 -5.5474854965537588e-09 -6.5291328307221958e-08 0.0000000000000000e+00 0.0000000000000000e+00 0.0000000000000000e+00 0.0000000000000000e+00  5.2898194787000206e-08 -8.6620676728935429e-09 0.0000000000000000e+00 -8.6620676728935429e-09 -8.7997255225135867e-08 0.0000000000000000e+00 0.0000000000000000e+00 0.0000000000000000e+00 0.0000000000000000e+00  4.6449524048445788e-08 -1.1640117014454299e-08 0.0000000000000000e+00 -1.1640117014454299e-08 -9.9387929856098592e-08 0.0000000000000000e+00 0.0000000000000000e+00 0.0000000000000000e+00 0.0000000000000000e+00  4.4928125182962942e-08 -5.2040475865798797e-09 0.0000000000000000e+00 -5.2040475865798797e-09 -9.9220905448014160e-08 0.0000000000000000e+00 0.0000000000000000e+00 0.0000000000000000e+00 0.0000000000000000e+00  4.7697652333809990e-08 -5.2816449509354824e-09 0.0000000000000000e+00 -5.2816449509354824e-09 -9.9380561568104605e-08 0.0000000000000000e+00 0.0000000000000000e+00 0.0000000000000000e+00 0.0000000000000000e+00  4.6256654782863886e-08 -7.6057243447414336e-09 0.0000000000000000e+00 -7.6057243447414336e-09 -9.8566901300617429e-08 0.0000000000000000e+00 0.0000000000000000e+00 0.0000000000000000e+00 0.0000000000000000e+00  3.7984982137745186e-08 -4.0271528184822359e-09 0.0000000000000000e+00 -4.0271528184822359e-09 -9.2182761986847176e-08 0.0000000000000000e+00 0.0000000000000000e+00 0.0000000000000000e+00 0.0000000000000000e+00  5.9691473179297271e-08 -9.7248079911314106e-09 0.0000000000000000e+00 -9.7248079911314106e-09 -1.0598900170952645e-07 0.0000000000000000e+00 0.0000000000000000e+00 0.0000000000000000e+00 0.0000000000000000e+00  5.5008650057879099e-08 -7.7180611139614320e-09 0.0000000000000000e+00 -7.7180611139614320e-09 -1.0428536325369925e-07 0.0000000000000000e+00 0.0000000000000000e+00 0.0000000000000000e+00 0.0000000000000000e+00  4.2227551629907564e-08 -6.1574860588109703e-09 0.0000000000000000e+00 -6.1574860588109703e-09 -9.5920410377323207e-08 0.0000000000000000e+00 0.0000000000000000e+00 0.0000000000000000e+00 0.0000000000000000e+00  5.2085995165209808e-08 -5.7358007253489435e-09 0.0000000000000000e+00 -5.7358007253489435e-09 -1.0253349337699696e-07 0.0000000000000000e+00 0.0000000000000000e+00 0.0000000000000000e+00 0.0000000000000000e+00  4.3398565643565986e-08 -6.7270732581843688e-09 0.0000000000000000e+00 -6.7270732581843688e-09 -9.6546649153609857e-08 0.0000000000000000e+00 0.0000000000000000e+00 0.0000000000000000e+00 0.0000000000000000e+00  4.9184081951185655e-08 -3.0058982862620103e-09 0.0000000000000000e+00 -3.0058982862620103e-09 -9.9975432983540114e-08 0.0000000000000000e+00 0.0000000000000000e+00 0.0000000000000000e+00 0.0000000000000000e+00  4.2806520014767702e-08 -8.1412196110004206e-09 0.0000000000000000e+00 -8.1412196110004206e-09 -9.6425134923584080e-08 0.0000000000000000e+00 0.0000000000000000e+00 0.0000000000000000e+00 0.0000000000000000e+00  5.2968806523850657e-08 -9.9031834593861615e-09 0.0000000000000000e+00 -9.9031834593861615e-09 -1.0322748017773825e-07 0.0000000000000000e+00 0.0000000000000000e+00 0.0000000000000000e+00 0.0000000000000000e+00  4.3581501129638620e-08 -5.5607695111889233e-09 0.0000000000000000e+00 -5.5607695111889233e-09 -9.6758740514665685e-08 0.0000000000000000e+00 0.0000000000000000e+00 0.0000000000000000e+00 0.0000000000000000e+00  4.8282036251312412e-08 -1.1200090483850751e-08 0.0000000000000000e+00 -1.1200090483850751e-08 -9.9849940456261303e-08 0.0000000000000000e+00 0.0000000000000000e+00 0.0000000000000000e+00 0.0000000000000000e+00  4.4619171792473996e-08 -4.9091028162494834e-09 0.0000000000000000e+00 -4.9091028162494834e-09 -9.7009143391477950e-08 0.0000000000000000e+00 0.0000000000000000e+00 0.0000000000000000e+00 0.0000000000000000e+00  5.0096161565859979e-08 -9.6825747531960793e-09 0.0000000000000000e+00 -9.6825747531960793e-09 -1.0092509480042702e-07 0.0000000000000000e+00 0.0000000000000000e+00 0.0000000000000000e+00 0.0000000000000000e+00  4.4822852555427472e-08 -5.3414598727160570e-09 0.0000000000000000e+00 -5.3414598727160570e-09 -9.7376478188555461e-08 0.0000000000000000e+00 0.0000000000000000e+00 0.0000000000000000e+00 0.0000000000000000e+00  4.2475446605653569e-08 -3.4809866981373462e-09 0.0000000000000000e+00 -3.4809866981373462e-09 -9.5701840304862994e-08 0.0000000000000000e+00 0.0000000000000000e+00 0.0000000000000000e+00 0.0000000000000000e+00  5.7785900577180519e-08 -1.4266750164234447e-08 0.0000000000000000e+00 -1.4266750164234447e-08 -1.0562563812955155e-07 0.0000000000000000e+00 0.0000000000000000e+00 0.0000000000000000e+00 0.0000000000000000e+00  4.9537041091092767e-08 -6.3178868085776431e-09 0.0000000000000000e+00 -6.3178868085776431e-09 -1.0075406364917907e-07 0.0000000000000000e+00 0.0000000000000000e+00 0.0000000000000000e+00 0.0000000000000000e+00  4.5254960325176548e-08 -6.6039607565142597e-09 0.0000000000000000e+00 -6.6039607565142597e-09 -9.7891775396307491e-08 0.0000000000000000e+00 0.0000000000000000e+00 0.0000000000000000e+00 0.0000000000000000e+00  4.3041546206404304e-08 -1.1504520306486673e-08 0.0000000000000000e+00 -1.1504520306486673e-08 -9.4852774623535995e-08 0.0000000000000000e+00 0.0000000000000000e+00 0.0000000000000000e+00 0.0000000000000000e+00  4.2658580833055551e-08 -3.3726574424645652e-09 0.0000000000000000e+00 -3.3726574424645652e-09 -9.4043107250113048e-08 0.0000000000000000e+00 0.0000000000000000e+00 0.0000000000000000e+00 0.0000000000000000e+00  4.4480738420619822e-08 -3.1233099335080977e-09 0.0000000000000000e+00 -3.1233099335080977e-09 -9.6077287425129082e-08 0.0000000000000000e+00 0.0000000000000000e+00 0.0000000000000000e+00 0.0000000000000000e+00  4.3752719896673923e-08 -1.0672641441232731e-08 0.0000000000000000e+00 -1.0672641441232731e-08 -9.6127761115985709e-08 0.0000000000000000e+00 0.0000000000000000e+00 0.0000000000000000e+00 0.0000000000000000e+00  4.4031782542675821e-08 -1.2094018211344499e-08 0.0000000000000000e+00 -1.2094018211344499e-08 -9.5795665939144282e-08 0.0000000000000000e+00 0.0000000000000000e+00 0.0000000000000000e+00 0.0000000000000000e+00  4.3013441767286080e-08 -3.9218427790968438e-09 0.0000000000000000e+00 -3.9218427790968438e-09 -9.4679374398913108e-08 0.0000000000000000e+00 0.0000000000000000e+00 0.0000000000000000e+00 0.0000000000000000e+00  4.5363161410905724e-08 -9.4290761467777707e-09 0.0000000000000000e+00 -9.4290761467777707e-09 -1.0054520745065419e-07 0.0000000000000000e+00 0.0000000000000000e+00 0.0000000000000000e+00 0.0000000000000000e+00  4.5826433447612091e-08 -3.4717133325609089e-09 0.0000000000000000e+00 -3.4717133325609089e-09 -9.8754372841046672e-08 0.0000000000000000e+00 0.0000000000000000e+00 0.0000000000000000e+00 0.0000000000000000e+00  5.3137143208363564e-08 -1.2331626722779637e-08 0.0000000000000000e+00 -1.2331626722779637e-08 -1.2144264714347208e-07 0.0000000000000000e+00 0.0000000000000000e+00 0.0000000000000000e+00 0.0000000000000000e+00  5.3165064067745444e-08 -8.9439445957401649e-09 0.0000000000000000e+00 -8.9439445957401649e-09 -1.1944956545522260e-07 0.0000000000000000e+00 0.0000000000000000e+00 0.0000000000000000e+00 0.0000000000000000e+00  3.8952256739359296e-08 3.4068156855094545e-08 0.0000000000000000e+00 3.4068156855094545e-08 -7.5474245665650880e-08 0.0000000000000000e+00 0.0000000000000000e+00 0.0000000000000000e+00 0.0000000000000000e+00  3.4686601828649354e-08 1.2251649757728230e-08 0.0000000000000000e+00 1.2251649757728230e-08 -6.7541557998954174e-08 0.0000000000000000e+00 0.0000000000000000e+00 0.0000000000000000e+00 0.0000000000000000e+00  5.7987626008208758e-08 -1.2149704154423685e-08 0.0000000000000000e+00 -1.2149704154423685e-08 -1.0593333419092925e-07 0.0000000000000000e+00 0.0000000000000000e+00 0.0000000000000000e+00 0.0000000000000000e+00  4.2206965652594437e-08 -3.8863048204944514e-09 0.0000000000000000e+00 -3.8863048204944514e-09 -9.5785576131470702e-08 0.0000000000000000e+00 0.0000000000000000e+00 0.0000000000000000e+00 0.0000000000000000e+00  5.3141198502922771e-08 -3.0467348246097029e-09 0.0000000000000000e+00 -3.0467348246097029e-09 -1.0309344708875196e-07 0.0000000000000000e+00 0.0000000000000000e+00 0.0000000000000000e+00 0.0000000000000000e+00  4.1118075480681211e-08 -7.3414990644963018e-09 0.0000000000000000e+00 -7.3414990644963018e-09 -9.5754994675718566e-08 0.0000000000000000e+00 0.0000000000000000e+00 0.0000000000000000e+00 0.0000000000000000e+00  5.9355800638128597e-08 -8.8228421278582469e-09 0.0000000000000000e+00 -8.8228421278582469e-09 -1.1015526291019186e-07 0.0000000000000000e+00 0.0000000000000000e+00 0.0000000000000000e+00 0.0000000000000000e+00  5.2858676016835488e-08 5.3802716233624332e-09 0.0000000000000000e+00 5.3802716233624332e-09 -1.0891913631243496e-07 0.0000000000000000e+00 0.0000000000000000e+00 0.0000000000000000e+00 0.0000000000000000e+00  5.0299456492262805e-08 -1.1295707022843597e-08 0.0000000000000000e+00 -1.1295707022843597e-08 -1.1685885939807974e-07 0.0000000000000000e+00 0.0000000000000000e+00 0.0000000000000000e+00 0.0000000000000000e+00  5.2537353210536034e-08 -1.5976811832880213e-09 0.0000000000000000e+00 -1.5976811832880213e-09 -1.1485206210773362e-07 0.0000000000000000e+00 0.0000000000000000e+00 0.0000000000000000e+00 0.0000000000000000e+00  5.3733464733635648e-08 -1.2239416276270398e-08 0.0000000000000000e+00 -1.2239416276270398e-08 -1.0352375087520267e-07 0.0000000000000000e+00 0.0000000000000000e+00 0.0000000000000000e+00 0.0000000000000000e+00  4.3284389530312585e-08 -5.3389973103425203e-09 0.0000000000000000e+00 -5.3389973103425203e-09 -9.6420681333696499e-08 0.0000000000000000e+00 0.0000000000000000e+00 0.0000000000000000e+00 0.0000000000000000e+00  4.7605581673823549e-08 -1.6079349694893331e-09 0.0000000000000000e+00 -1.6079349694893331e-09 -9.9023370778477626e-08 0.0000000000000000e+00 0.0000000000000000e+00 0.0000000000000000e+00 0.0000000000000000e+00  4.1925201175391123e-08 -8.6888027998729278e-09 0.0000000000000000e+00 -8.6888027998729278e-09 -9.5755280831893672e-08 0.0000000000000000e+00 0.0000000000000000e+00 0.0000000000000000e+00 0.0000000000000000e+00  4.6704805425755256e-08 -5.4694224763540718e-09 0.0000000000000000e+00 -5.4694224763540718e-09 -9.5538236204427114e-08 0.0000000000000000e+00 0.0000000000000000e+00 0.0000000000000000e+00 0.0000000000000000e+00  4.8417652818403980e-08 -9.9580692072667232e-09 0.0000000000000000e+00 -9.9580692072667232e-09 -9.6533010010237298e-08 0.0000000000000000e+00 0.0000000000000000e+00 0.0000000000000000e+00 0.0000000000000000e+00  4.1814491626484547e-08 -3.9027413158914285e-08 0.0000000000000000e+00 -3.9027413158914285e-08 -8.1549589959101418e-08 0.0000000000000000e+00 0.0000000000000000e+00 0.0000000000000000e+00 0.0000000000000000e+00  3.8468614205917503e-08 -2.4754213694148271e-08 0.0000000000000000e+00 -2.4754213694148271e-08 -6.9868222079526241e-08 0.0000000000000000e+00 0.0000000000000000e+00 0.0000000000000000e+00 0.0000000000000000e+00  3.6182322083858501e-08 -1.3297399832897317e-08 0.0000000000000000e+00 -1.3297399832897317e-08 -6.4613040897317373e-08 0.0000000000000000e+00 0.0000000000000000e+00 0.0000000000000000e+00 0.0000000000000000e+00  -1.8050624138687609e-08 -5.4940290555428317e-08 0.0000000000000000e+00 -5.4940290555428317e-08 -6.0624895960735029e-08 0.0000000000000000e+00 0.0000000000000000e+00 0.0000000000000000e+00 0.0000000000000000e+00  4.6412174409540511e-08 4.9777114916716218e-10 0.0000000000000000e+00 4.9777114916716218e-10 -9.7801108219955859e-08 0.0000000000000000e+00 0.0000000000000000e+00 0.0000000000000000e+00 0.0000000000000000e+00  4.0724819313394105e-08 -8.6703293782352072e-09 0.0000000000000000e+00 -8.6703293782352072e-09 -9.5721807110032878e-08 0.0000000000000000e+00 0.0000000000000000e+00 0.0000000000000000e+00 0.0000000000000000e+00  4.8953128048320671e-08 8.4110670429758181e-10 0.0000000000000000e+00 8.4110670429758181e-10 -8.1962038062251041e-08 0.0000000000000000e+00 0.0000000000000000e+00 0.0000000000000000e+00 0.0000000000000000e+00  2.1463280757307005e-09 2.1091531512731463e-08 0.0000000000000000e+00 2.1091531512731463e-08 -5.1027967081770633e-08 0.0000000000000000e+00 0.0000000000000000e+00 0.0000000000000000e+00 0.0000000000000000e+00  4.4382554856154246e-08 -1.3415333045450440e-08 0.0000000000000000e+00 -1.3415333045450440e-08 -9.5813892848430385e-08 0.0000000000000000e+00 0.0000000000000000e+00 0.0000000000000000e+00 0.0000000000000000e+00  4.1677478537525874e-08 -5.5871080669947751e-09 0.0000000000000000e+00 -5.5871080669947751e-09 -9.4505873044542090e-08 0.0000000000000000e+00 0.0000000000000000e+00 0.0000000000000000e+00 0.0000000000000000e+00  4.7687855247776467e-08 -1.0708992810430515e-08 0.0000000000000000e+00 -1.0708992810430515e-08 -9.7485821478391281e-08 0.0000000000000000e+00 0.0000000000000000e+00 0.0000000000000000e+00 0.0000000000000000e+00  4.5981406495207407e-08 -5.6162634691754272e-09 0.0000000000000000e+00 -5.6162634691754272e-09 -9.6766659867360801e-08 0.0000000000000000e+00 0.0000000000000000e+00 0.0000000000000000e+00 0.0000000000000000e+00  4.5409947712477933e-08 -1.4564506492318010e-08 0.0000000000000000e+00 -1.4564506492318010e-08 -9.7144287345407114e-08 0.0000000000000000e+00 0.0000000000000000e+00 0.0000000000000000e+00 0.0000000000000000e+00  4.1499462239063676e-08 -5.6048269462458084e-09 0.0000000000000000e+00 -5.6048269462458084e-09 -9.4437115083413906e-08 0.0000000000000000e+00 0.0000000000000000e+00 0.0000000000000000e+00 0.0000000000000000e+00  4.4478011868150395e-08 6.1240792585923254e-10 0.0000000000000000e+00 6.1240792585923254e-10 -9.8382847712479847e-08 0.0000000000000000e+00 0.0000000000000000e+00 0.0000000000000000e+00 0.0000000000000000e+00  4.1365356735201915e-08 -8.6112429484663698e-09 0.0000000000000000e+00 -8.6112429484663698e-09 -9.7929959900314325e-08 0.0000000000000000e+00 0.0000000000000000e+00 0.0000000000000000e+00 0.0000000000000000e+00  5.4409121064250615e-08 3.5154755423194917e-09 0.0000000000000000e+00 3.5154755423194917e-09 -1.0122245210837341e-07 0.0000000000000000e+00 0.0000000000000000e+00 0.0000000000000000e+00 0.0000000000000000e+00  4.0596382464328497e-08 2.4022857521866346e-08 0.0000000000000000e+00 2.4022857521866346e-08 -9.8260380285511218e-08 0.0000000000000000e+00 0.0000000000000000e+00 0.0000000000000000e+00 0.0000000000000000e+00  5.9342932006704698e-08 -5.3444914494520756e-09 0.0000000000000000e+00 -5.3444914494520756e-09 -1.0568820685060471e-07 0.0000000000000000e+00 0.0000000000000000e+00 0.0000000000000000e+00 0.0000000000000000e+00  3.6734999402113408e-08 -9.1510872904057307e-09 0.0000000000000000e+00 -9.1510872904057307e-09 -9.1392746546811551e-08 0.0000000000000000e+00 0.0000000000000000e+00 0.0000000000000000e+00 0.0000000000000000e+00  4.8421521079571014e-08 1.5245891873784960e-09 0.0000000000000000e+00 1.5245891873784960e-09 -1.0082039713394836e-07 0.0000000000000000e+00 0.0000000000000000e+00 0.0000000000000000e+00 0.0000000000000000e+00  4.1248448271490719e-08 -8.8867716597209219e-09 0.0000000000000000e+00 -8.8867716597209219e-09 -9.8572446296454061e-08 0.0000000000000000e+00 0.0000000000000000e+00 0.0000000000000000e+00 0.0000000000000000e+00  5.4967213680474847e-08 -1.0947958394383467e-09 0.0000000000000000e+00 -1.0947958394383467e-09 -1.0385574912433745e-07 0.0000000000000000e+00 0.0000000000000000e+00 0.0000000000000000e+00 0.0000000000000000e+00  4.0466414332369362e-08 -1.0984066412742910e-08 0.0000000000000000e+00 -1.0984066412742910e-08 -9.6900686193924661e-08 0.0000000000000000e+00 0.0000000000000000e+00 0.0000000000000000e+00 0.0000000000000000e+00  5.3596098115599977e-08 -1.5591756826614689e-08 0.0000000000000000e+00 -1.5591756826614689e-08 -1.0364793995469899e-07 0.0000000000000000e+00 0.0000000000000000e+00 0.0000000000000000e+00 0.0000000000000000e+00  4.3984682501335790e-08 -3.4968711258862253e-09 0.0000000000000000e+00 -3.4968711258862253e-09 -9.8674533876389483e-08 0.0000000000000000e+00 0.0000000000000000e+00 0.0000000000000000e+00 0.0000000000000000e+00  </DataArray> 
</PointData> 
</Piece>
</UnstructuredGrid>
</VTKFile>